%!PS-Adobe-3.0 EPSF-3.0
%%Title: ParaView GL2PS Export
%%Creator: GL2PS 1.3.8, (C) 1999-2012 C. Geuzaine
%%For: VTK
%%CreationDate: Wed Mar  7 16:29:41 2018
%%LanguageLevel: 3
%%DocumentData: Clean7Bit
%%Pages: 1
%%BoundingBox: 0 0 466 741
%%EndComments
%%BeginProlog
/gl2psdict 64 dict def gl2psdict begin
0 setlinecap 0 setlinejoin
/tryPS3shading true def % set to false to force subdivision
/rThreshold 0.064 def % red component subdivision threshold
/gThreshold 0.034 def % green component subdivision threshold
/bThreshold 0.1 def % blue component subdivision threshold
/BD { bind def } bind def
/C  { setrgbcolor } BD
/G  { 0.082 mul exch 0.6094 mul add exch 0.3086 mul add neg 1.0 add setgray } BD
/W  { setlinewidth } BD
/FC { findfont exch /SH exch def SH scalefont setfont } BD
/SW { dup stringwidth pop } BD
/S  { FC moveto show } BD
/SBC{ FC moveto SW -2 div 0 rmoveto show } BD
/SBR{ FC moveto SW neg 0 rmoveto show } BD
/SCL{ FC moveto 0 SH -2 div rmoveto show } BD
/SCC{ FC moveto SW -2 div SH -2 div rmoveto show } BD
/SCR{ FC moveto SW neg SH -2 div rmoveto show } BD
/STL{ FC moveto 0 SH neg rmoveto show } BD
/STC{ FC moveto SW -2 div SH neg rmoveto show } BD
/STR{ FC moveto SW neg SH neg rmoveto show } BD
/FCT { FC translate 0 0 } BD
/SR  { gsave FCT moveto rotate show grestore } BD
/SBCR{ gsave FCT moveto rotate SW -2 div 0 rmoveto show grestore } BD
/SBRR{ gsave FCT moveto rotate SW neg 0 rmoveto show grestore } BD
/SCLR{ gsave FCT moveto rotate 0 SH -2 div rmoveto show grestore} BD
/SCCR{ gsave FCT moveto rotate SW -2 div SH -2 div rmoveto show grestore} BD
/SCRR{ gsave FCT moveto rotate SW neg SH -2 div rmoveto show grestore} BD
/STLR{ gsave FCT moveto rotate 0 SH neg rmoveto show grestore } BD
/STCR{ gsave FCT moveto rotate SW -2 div SH neg rmoveto show grestore } BD
/STRR{ gsave FCT moveto rotate SW neg SH neg rmoveto show grestore } BD
/P  { newpath 0.0 360.0 arc closepath fill } BD
/LS { newpath moveto } BD
/L  { lineto } BD
/LE { lineto stroke } BD
/T  { newpath moveto lineto lineto closepath fill } BD
/STshfill {
      /b1 exch def /g1 exch def /r1 exch def /y1 exch def /x1 exch def
      /b2 exch def /g2 exch def /r2 exch def /y2 exch def /x2 exch def
      /b3 exch def /g3 exch def /r3 exch def /y3 exch def /x3 exch def
      gsave << /ShadingType 4 /ColorSpace [/DeviceRGB]
      /DataSource [ 0 x1 y1 r1 g1 b1 0 x2 y2 r2 g2 b2 0 x3 y3 r3 g3 b3 ] >>
      shfill grestore } BD
/Tm { 3 -1 roll 8 -1 roll 13 -1 roll add add 3 div
      3 -1 roll 7 -1 roll 11 -1 roll add add 3 div
      3 -1 roll 6 -1 roll 9 -1 roll add add 3 div C T } BD
/STsplit {
      4 index 15 index add 0.5 mul
      4 index 15 index add 0.5 mul
      4 index 15 index add 0.5 mul
      4 index 15 index add 0.5 mul
      4 index 15 index add 0.5 mul
      5 copy 5 copy 25 15 roll
      9 index 30 index add 0.5 mul
      9 index 30 index add 0.5 mul
      9 index 30 index add 0.5 mul
      9 index 30 index add 0.5 mul
      9 index 30 index add 0.5 mul
      5 copy 5 copy 35 5 roll 25 5 roll 15 5 roll
      4 index 10 index add 0.5 mul
      4 index 10 index add 0.5 mul
      4 index 10 index add 0.5 mul
      4 index 10 index add 0.5 mul
      4 index 10 index add 0.5 mul
      5 copy 5 copy 40 5 roll 25 5 roll 15 5 roll 25 5 roll
      STnoshfill STnoshfill STnoshfill STnoshfill } BD
/STnoshfill {
      2 index 8 index sub abs rThreshold gt
      { STsplit }
      { 1 index 7 index sub abs gThreshold gt
        { STsplit }
        { dup 6 index sub abs bThreshold gt
          { STsplit }
          { 2 index 13 index sub abs rThreshold gt
            { STsplit }
            { 1 index 12 index sub abs gThreshold gt
              { STsplit }
              { dup 11 index sub abs bThreshold gt
                { STsplit }
                { 7 index 13 index sub abs rThreshold gt
                  { STsplit }
                  { 6 index 12 index sub abs gThreshold gt
                    { STsplit }
                    { 5 index 11 index sub abs bThreshold gt
                      { STsplit }
                      { Tm }
                      ifelse }
                    ifelse }
                  ifelse }
                ifelse }
              ifelse }
            ifelse }
          ifelse }
        ifelse }
      ifelse } BD
tryPS3shading
{ /shfill where
  { /ST { STshfill } BD }
  { /ST { STnoshfill } BD }
  ifelse }
{ /ST { STnoshfill } BD }
ifelse
end
%%EndProlog
%%BeginSetup
/DeviceRGB setcolorspace
gl2psdict begin
%%EndSetup
%%Page: 1 1
%%BeginPageSetup
%%EndPageSetup
mark
gsave
1.0 1.0 scale
1 1 1 C
newpath 0 0 moveto 466 0 lineto 466 741 lineto 0 741 lineto
closepath fill
0.714 W
0.94902 0.94902 0.94902 C
45.5979 26.5358 LS
45.5979 721.474 LE
125.77 26.5358 LS
125.77 721.474 LE
205.942 26.5358 LS
205.942 721.474 LE
286.114 26.5358 LS
286.114 721.474 LE
366.286 26.5358 LS
366.286 721.474 LE
446.458 26.5358 LS
446.458 721.474 LE
45.5979 26.5358 LS
446.458 26.5358 LE
45.5979 75.6021 LS
446.458 75.6021 LE
45.5979 125.67 LS
446.458 125.67 LE
45.5979 174.736 LS
446.458 174.736 LE
45.5979 224.803 LS
446.458 224.803 LE
45.5979 273.87 LS
446.458 273.87 LE
45.5979 323.937 LS
446.458 323.937 LE
45.5979 374.005 LS
446.458 374.005 LE
45.5979 423.071 LS
446.458 423.071 LE
45.5979 473.138 LS
446.458 473.138 LE
45.5979 522.205 LS
446.458 522.205 LE
45.5979 572.272 LS
446.458 572.272 LE
45.5979 621.339 LS
446.458 621.339 LE
45.5979 671.406 LS
446.458 671.406 LE
45.5979 721.474 LS
446.458 721.474 LE
1.428 W
0.647059 0.337255 0.156863 C
45.5979 691.989 LS
49.6064 691.666 L
53.6151 691.343 L
57.6237 690.376 L
61.6322 689.408 L
65.6409 687.819 L
69.6495 686.23 L
73.6581 684.046 L
77.6667 681.862 L
81.6753 679.057 L
85.6839 676.253 L
89.6925 672.829 L
93.7011 669.403 L
97.7097 665.383 L
101.718 661.362 L
105.727 656.77 L
109.735 652.178 L
113.744 647.041 L
117.753 641.903 L
121.761 636.245 L
125.77 630.586 L
129.778 624.43 L
133.787 618.275 L
137.796 611.624 L
141.804 604.973 L
145.813 597.875 L
149.822 590.776 L
153.83 583.28 L
157.839 575.785 L
161.847 567.892 L
165.856 560 L
169.865 551.735 L
173.873 543.47 L
177.882 534.858 L
181.89 526.246 L
185.899 517.361 L
189.908 508.475 L
193.916 499.342 L
197.925 490.208 L
201.933 480.826 L
205.942 471.445 L
209.951 461.89 L
213.959 452.335 L
217.968 442.655 L
221.976 432.976 L
225.985 423.172 L
229.994 413.367 L
234.002 403.49 L
238.011 393.612 L
242.019 383.684 L
246.028 373.757 L
250.037 363.83 L
254.045 353.902 L
258.054 344.023 L
262.062 334.145 L
266.071 324.316 L
270.08 314.488 L
274.088 304.784 L
278.097 295.08 L
282.105 285.524 L
286.114 275.969 L
290.123 266.587 L
294.131 257.206 L
298.14 248.022 L
302.148 238.84 L
306.157 229.905 L
310.166 220.969 L
314.174 212.333 L
318.183 203.696 L
322.191 195.382 L
326.2 187.066 L
330.209 179.099 L
334.217 171.132 L
338.226 163.563 L
342.234 155.993 L
346.243 148.845 L
350.252 141.697 L
354.26 134.996 L
358.269 128.295 L
362.277 122.09 L
366.286 115.885 L
370.295 110.202 L
374.303 104.518 L
378.312 99.3561 L
382.32 94.1938 L
386.329 89.5764 L
390.338 84.9597 L
394.346 80.9147 L
398.355 76.8698 L
402.363 73.4198 L
406.372 69.9691 L
410.381 67.1395 L
414.389 64.3108 L
418.398 62.101 L
422.406 59.8926 L
426.415 58.3047 L
430.424 56.7161 L
434.432 55.7734 L
438.441 54.83 L
442.449 54.5318 L
446.458 54.235 LE
0.714 W
0 0 0 C
45.5979 26.5358 LS
45.5979 721.474 LE
(1.04) 38.5828 26.5358 12 /Helvetica SCR
40.5871 26.5358 LS
45.5979 26.5358 LE
(1.045) 38.5828 75.6021 12 /Helvetica SCR
40.5871 75.6021 LS
45.5979 75.6021 LE
(1.05) 38.5828 125.67 12 /Helvetica SCR
40.5871 125.67 LS
45.5979 125.67 LE
(1.055) 38.5828 174.736 12 /Helvetica SCR
40.5871 174.736 LS
45.5979 174.736 LE
(1.06) 38.5828 224.803 12 /Helvetica SCR
40.5871 224.803 LS
45.5979 224.803 LE
(1.065) 38.5828 273.87 12 /Helvetica SCR
40.5871 273.87 LS
45.5979 273.87 LE
(1.07) 38.5828 323.937 12 /Helvetica SCR
40.5871 323.937 LS
45.5979 323.937 LE
(1.075) 38.5828 374.005 12 /Helvetica SCR
40.5871 374.005 LS
45.5979 374.005 LE
(1.08) 38.5828 423.071 12 /Helvetica SCR
40.5871 423.071 LS
45.5979 423.071 LE
(1.085) 38.5828 473.138 12 /Helvetica SCR
40.5871 473.138 LS
45.5979 473.138 LE
(1.09) 38.5828 522.205 12 /Helvetica SCR
40.5871 522.205 LS
45.5979 522.205 LE
(1.095) 38.5828 572.272 12 /Helvetica SCR
40.5871 572.272 LS
45.5979 572.272 LE
(1.1) 38.5828 621.339 12 /Helvetica SCR
40.5871 621.339 LS
45.5979 621.339 LE
(1.105) 38.5828 671.406 12 /Helvetica SCR
40.5871 671.406 LS
45.5979 671.406 LE
(1.11) 38.5828 721.474 12 /Helvetica SCR
40.5871 721.474 LS
45.5979 721.474 LE
45.5979 26.5358 LS
446.458 26.5358 LE
(0) 45.5979 19.5264 12 /Helvetica STC
45.5979 21.5291 LS
45.5979 26.5358 LE
(0.2) 125.77 19.5264 12 /Helvetica STC
125.77 21.5291 LS
125.77 26.5358 LE
(0.4) 205.942 19.5264 12 /Helvetica STC
205.942 21.5291 LS
205.942 26.5358 LE
(0.6) 286.114 19.5264 12 /Helvetica STC
286.114 21.5291 LS
286.114 26.5358 LE
(0.8) 366.286 19.5264 12 /Helvetica STC
366.286 21.5291 LS
366.286 26.5358 LE
(1) 446.458 19.5264 12 /Helvetica STC
446.458 21.5291 LS
446.458 26.5358 LE
1 1 1 C
385.327 721.474 446.458 699.444 385.327 699.444 T
385.327 721.474 446.458 721.474 446.458 699.444 T
0 0 0 C
385.327 699.444 LS
446.458 699.444 L
446.458 721.474 L
385.327 721.474 L
385.327 699.444 LE
(rhok) 415.391 704.451 12 /Helvetica S
1.428 W
0.647059 0.337255 0.156863 C
390.338 710.459 LS
412.385 710.459 LE
grestore
showpage
cleartomark
%%PageTrailer
%%Trailer
end
%%EOF
