%!PS-Adobe-3.0 EPSF-3.0
%%Title: ParaView GL2PS Export
%%Creator: GL2PS 1.3.8, (C) 1999-2012 C. Geuzaine
%%For: VTK
%%CreationDate: Fri Mar  2 15:14:36 2018
%%LanguageLevel: 3
%%DocumentData: Clean7Bit
%%Pages: 1
%%BoundingBox: 0 0 977 741
%%EndComments
%%BeginProlog
/gl2psdict 64 dict def gl2psdict begin
0 setlinecap 0 setlinejoin
/tryPS3shading true def % set to false to force subdivision
/rThreshold 0.064 def % red component subdivision threshold
/gThreshold 0.034 def % green component subdivision threshold
/bThreshold 0.1 def % blue component subdivision threshold
/BD { bind def } bind def
/C  { setrgbcolor } BD
/G  { 0.082 mul exch 0.6094 mul add exch 0.3086 mul add neg 1.0 add setgray } BD
/W  { setlinewidth } BD
/FC { findfont exch /SH exch def SH scalefont setfont } BD
/SW { dup stringwidth pop } BD
/S  { FC moveto show } BD
/SBC{ FC moveto SW -2 div 0 rmoveto show } BD
/SBR{ FC moveto SW neg 0 rmoveto show } BD
/SCL{ FC moveto 0 SH -2 div rmoveto show } BD
/SCC{ FC moveto SW -2 div SH -2 div rmoveto show } BD
/SCR{ FC moveto SW neg SH -2 div rmoveto show } BD
/STL{ FC moveto 0 SH neg rmoveto show } BD
/STC{ FC moveto SW -2 div SH neg rmoveto show } BD
/STR{ FC moveto SW neg SH neg rmoveto show } BD
/FCT { FC translate 0 0 } BD
/SR  { gsave FCT moveto rotate show grestore } BD
/SBCR{ gsave FCT moveto rotate SW -2 div 0 rmoveto show grestore } BD
/SBRR{ gsave FCT moveto rotate SW neg 0 rmoveto show grestore } BD
/SCLR{ gsave FCT moveto rotate 0 SH -2 div rmoveto show grestore} BD
/SCCR{ gsave FCT moveto rotate SW -2 div SH -2 div rmoveto show grestore} BD
/SCRR{ gsave FCT moveto rotate SW neg SH -2 div rmoveto show grestore} BD
/STLR{ gsave FCT moveto rotate 0 SH neg rmoveto show grestore } BD
/STCR{ gsave FCT moveto rotate SW -2 div SH neg rmoveto show grestore } BD
/STRR{ gsave FCT moveto rotate SW neg SH neg rmoveto show grestore } BD
/P  { newpath 0.0 360.0 arc closepath fill } BD
/LS { newpath moveto } BD
/L  { lineto } BD
/LE { lineto stroke } BD
/T  { newpath moveto lineto lineto closepath fill } BD
/STshfill {
      /b1 exch def /g1 exch def /r1 exch def /y1 exch def /x1 exch def
      /b2 exch def /g2 exch def /r2 exch def /y2 exch def /x2 exch def
      /b3 exch def /g3 exch def /r3 exch def /y3 exch def /x3 exch def
      gsave << /ShadingType 4 /ColorSpace [/DeviceRGB]
      /DataSource [ 0 x1 y1 r1 g1 b1 0 x2 y2 r2 g2 b2 0 x3 y3 r3 g3 b3 ] >>
      shfill grestore } BD
/Tm { 3 -1 roll 8 -1 roll 13 -1 roll add add 3 div
      3 -1 roll 7 -1 roll 11 -1 roll add add 3 div
      3 -1 roll 6 -1 roll 9 -1 roll add add 3 div C T } BD
/STsplit {
      4 index 15 index add 0.5 mul
      4 index 15 index add 0.5 mul
      4 index 15 index add 0.5 mul
      4 index 15 index add 0.5 mul
      4 index 15 index add 0.5 mul
      5 copy 5 copy 25 15 roll
      9 index 30 index add 0.5 mul
      9 index 30 index add 0.5 mul
      9 index 30 index add 0.5 mul
      9 index 30 index add 0.5 mul
      9 index 30 index add 0.5 mul
      5 copy 5 copy 35 5 roll 25 5 roll 15 5 roll
      4 index 10 index add 0.5 mul
      4 index 10 index add 0.5 mul
      4 index 10 index add 0.5 mul
      4 index 10 index add 0.5 mul
      4 index 10 index add 0.5 mul
      5 copy 5 copy 40 5 roll 25 5 roll 15 5 roll 25 5 roll
      STnoshfill STnoshfill STnoshfill STnoshfill } BD
/STnoshfill {
      2 index 8 index sub abs rThreshold gt
      { STsplit }
      { 1 index 7 index sub abs gThreshold gt
        { STsplit }
        { dup 6 index sub abs bThreshold gt
          { STsplit }
          { 2 index 13 index sub abs rThreshold gt
            { STsplit }
            { 1 index 12 index sub abs gThreshold gt
              { STsplit }
              { dup 11 index sub abs bThreshold gt
                { STsplit }
                { 7 index 13 index sub abs rThreshold gt
                  { STsplit }
                  { 6 index 12 index sub abs gThreshold gt
                    { STsplit }
                    { 5 index 11 index sub abs bThreshold gt
                      { STsplit }
                      { Tm }
                      ifelse }
                    ifelse }
                  ifelse }
                ifelse }
              ifelse }
            ifelse }
          ifelse }
        ifelse }
      ifelse } BD
tryPS3shading
{ /shfill where
  { /ST { STshfill } BD }
  { /ST { STnoshfill } BD }
  ifelse }
{ /ST { STnoshfill } BD }
ifelse
end
%%EndProlog
%%BeginSetup
/DeviceRGB setcolorspace
gl2psdict begin
%%EndSetup
%%Page: 1 1
%%BeginPageSetup
%%EndPageSetup
mark
gsave
1.0 1.0 scale
1 1 1 C
newpath 0 0 moveto 977 0 lineto 977 741 lineto 0 741 lineto
closepath fill
0.714 W
0.94902 0.94902 0.94902 C
31.5323 26.5358 LS
31.5323 721.474 LE
77.5794 26.5358 LS
77.5794 721.474 LE
123.627 26.5358 LS
123.627 721.474 LE
169.674 26.5358 LS
169.674 721.474 LE
216.722 26.5358 LS
216.722 721.474 LE
262.769 26.5358 LS
262.769 721.474 LE
308.816 26.5358 LS
308.816 721.474 LE
354.863 26.5358 LS
354.863 721.474 LE
401.911 26.5358 LS
401.911 721.474 LE
447.958 26.5358 LS
447.958 721.474 LE
494.006 26.5358 LS
494.006 721.474 LE
540.053 26.5358 LS
540.053 721.474 LE
587.101 26.5358 LS
587.101 721.474 LE
633.148 26.5358 LS
633.148 721.474 LE
679.195 26.5358 LS
679.195 721.474 LE
725.242 26.5358 LS
725.242 721.474 LE
772.29 26.5358 LS
772.29 721.474 LE
818.338 26.5358 LS
818.338 721.474 LE
864.385 26.5358 LS
864.385 721.474 LE
910.432 26.5358 LS
910.432 721.474 LE
957.48 26.5358 LS
957.48 721.474 LE
31.5323 26.5358 LS
957.48 26.5358 LE
31.5323 72.598 LS
957.48 72.598 LE
31.5323 118.66 LS
957.48 118.66 LE
31.5323 164.722 LS
957.48 164.722 LE
31.5323 211.786 LS
957.48 211.786 LE
31.5323 257.848 LS
957.48 257.848 LE
31.5323 303.91 LS
957.48 303.91 LE
31.5323 349.972 LS
957.48 349.972 LE
31.5323 397.036 LS
957.48 397.036 LE
31.5323 443.098 LS
957.48 443.098 LE
31.5323 489.16 LS
957.48 489.16 LE
31.5323 535.222 LS
957.48 535.222 LE
31.5323 582.286 LS
957.48 582.286 LE
31.5323 628.348 LS
957.48 628.348 LE
31.5323 674.41 LS
957.48 674.41 LE
31.5323 721.474 LS
957.48 721.474 LE
1.428 W
0 0 0 C
31.5323 26.5358 LS
40.7917 40.2935 L
50.0512 54.0511 L
59.3107 67.5308 L
68.5702 81.0104 L
77.8297 94.2123 L
87.0891 107.414 L
96.3486 120.338 L
105.608 133.262 L
114.868 145.908 L
124.127 158.553 L
133.387 170.921 L
142.646 183.289 L
151.905 195.379 L
161.165 207.469 L
170.424 219.281 L
179.684 231.093 L
188.943 242.627 L
198.203 254.161 L
207.462 265.417 L
216.722 276.673 L
225.981 287.651 L
235.241 298.629 L
244.5 309.33 L
253.76 320.03 L
263.019 330.452 L
272.279 340.874 L
281.538 351.018 L
290.798 361.162 L
300.057 371.028 L
309.317 380.895 L
318.576 390.483 L
327.836 400.071 L
337.095 409.381 L
346.354 418.692 L
355.614 427.724 L
364.873 436.756 L
374.133 445.51 L
383.392 454.264 L
392.652 462.741 L
401.911 471.217 L
411.171 479.416 L
420.43 487.614 L
429.69 495.535 L
438.949 503.455 L
448.209 511.097 L
457.468 518.739 L
466.728 526.103 L
475.987 533.467 L
485.247 540.554 L
494.506 547.64 L
503.766 554.449 L
513.025 561.258 L
522.284 567.789 L
531.544 574.321 L
540.804 580.573 L
550.063 586.825 L
559.322 592.799 L
568.582 598.773 L
577.841 604.469 L
587.101 610.165 L
596.36 615.585 L
605.62 621.004 L
614.879 626.146 L
624.139 631.287 L
633.398 636.149 L
642.658 641.011 L
651.917 645.597 L
661.177 650.182 L
670.436 654.49 L
679.696 658.797 L
688.955 662.826 L
698.215 666.854 L
707.474 670.605 L
716.734 674.357 L
725.993 677.83 L
735.253 681.304 L
744.512 684.5 L
753.771 687.695 L
763.031 690.613 L
772.29 693.53 L
781.55 696.17 L
790.809 698.809 L
800.069 701.172 L
809.328 703.535 L
818.588 705.619 L
827.847 707.702 L
837.107 709.508 L
846.366 711.314 L
855.626 712.843 L
864.885 714.371 L
874.145 715.621 L
883.404 716.871 L
892.664 717.843 L
901.923 718.814 L
911.183 719.509 L
920.442 720.204 L
929.702 720.621 L
938.961 721.038 L
948.221 721.177 L
957.48 721.316 LE
0.714 W
31.5323 26.5358 LS
31.5323 721.474 LE
(0) 24.5251 26.5358 12 /Helvetica SCR
26.5272 26.5358 LS
31.5323 26.5358 LE
(0.1) 24.5251 72.598 12 /Helvetica SCR
26.5272 72.598 LS
31.5323 72.598 LE
(0.2) 24.5251 118.66 12 /Helvetica SCR
26.5272 118.66 LS
31.5323 118.66 LE
(0.3) 24.5251 164.722 12 /Helvetica SCR
26.5272 164.722 LS
31.5323 164.722 LE
(0.4) 24.5251 211.786 12 /Helvetica SCR
26.5272 211.786 LS
31.5323 211.786 LE
(0.5) 24.5251 257.848 12 /Helvetica SCR
26.5272 257.848 LS
31.5323 257.848 LE
(0.6) 24.5251 303.91 12 /Helvetica SCR
26.5272 303.91 LS
31.5323 303.91 LE
(0.7) 24.5251 349.972 12 /Helvetica SCR
26.5272 349.972 LS
31.5323 349.972 LE
(0.8) 24.5251 397.036 12 /Helvetica SCR
26.5272 397.036 LS
31.5323 397.036 LE
(0.9) 24.5251 443.098 12 /Helvetica SCR
26.5272 443.098 LS
31.5323 443.098 LE
(1) 24.5251 489.16 12 /Helvetica SCR
26.5272 489.16 LS
31.5323 489.16 LE
(1.1) 24.5251 535.222 12 /Helvetica SCR
26.5272 535.222 LS
31.5323 535.222 LE
(1.2) 24.5251 582.286 12 /Helvetica SCR
26.5272 582.286 LS
31.5323 582.286 LE
(1.3) 24.5251 628.348 12 /Helvetica SCR
26.5272 628.348 LS
31.5323 628.348 LE
(1.4) 24.5251 674.41 12 /Helvetica SCR
26.5272 674.41 LS
31.5323 674.41 LE
(1.5) 24.5251 721.474 12 /Helvetica SCR
26.5272 721.474 LS
31.5323 721.474 LE
31.5323 26.5358 LS
957.48 26.5358 LE
(0) 31.5323 19.5264 12 /Helvetica STC
31.5323 21.5291 LS
31.5323 26.5358 LE
(0.05) 77.5794 19.5264 12 /Helvetica STC
77.5794 21.5291 LS
77.5794 26.5358 LE
(0.1) 123.627 19.5264 12 /Helvetica STC
123.627 21.5291 LS
123.627 26.5358 LE
(0.15) 169.674 19.5264 12 /Helvetica STC
169.674 21.5291 LS
169.674 26.5358 LE
(0.2) 216.722 19.5264 12 /Helvetica STC
216.722 21.5291 LS
216.722 26.5358 LE
(0.25) 262.769 19.5264 12 /Helvetica STC
262.769 21.5291 LS
262.769 26.5358 LE
(0.3) 308.816 19.5264 12 /Helvetica STC
308.816 21.5291 LS
308.816 26.5358 LE
(0.35) 354.863 19.5264 12 /Helvetica STC
354.863 21.5291 LS
354.863 26.5358 LE
(0.4) 401.911 19.5264 12 /Helvetica STC
401.911 21.5291 LS
401.911 26.5358 LE
(0.45) 447.958 19.5264 12 /Helvetica STC
447.958 21.5291 LS
447.958 26.5358 LE
(0.5) 494.006 19.5264 12 /Helvetica STC
494.006 21.5291 LS
494.006 26.5358 LE
(0.55) 540.053 19.5264 12 /Helvetica STC
540.053 21.5291 LS
540.053 26.5358 LE
(0.6) 587.101 19.5264 12 /Helvetica STC
587.101 21.5291 LS
587.101 26.5358 LE
(0.65) 633.148 19.5264 12 /Helvetica STC
633.148 21.5291 LS
633.148 26.5358 LE
(0.7) 679.195 19.5264 12 /Helvetica STC
679.195 21.5291 LS
679.195 26.5358 LE
(0.75) 725.242 19.5264 12 /Helvetica STC
725.242 21.5291 LS
725.242 26.5358 LE
(0.8) 772.29 19.5264 12 /Helvetica STC
772.29 21.5291 LS
772.29 26.5358 LE
(0.85) 818.338 19.5264 12 /Helvetica STC
818.338 21.5291 LS
818.338 26.5358 LE
(0.9) 864.385 19.5264 12 /Helvetica STC
864.385 21.5291 LS
864.385 26.5358 LE
(0.95) 910.432 19.5264 12 /Helvetica STC
910.432 21.5291 LS
910.432 26.5358 LE
(1) 957.48 19.5264 12 /Helvetica STC
957.48 21.5291 LS
957.48 26.5358 LE
1 1 1 C
31.5323 721.474 143.647 699.444 31.5323 699.444 T
31.5323 721.474 143.647 721.474 143.647 699.444 T
0 0 0 C
31.5323 699.444 LS
143.647 699.444 L
143.647 721.474 L
31.5323 721.474 L
31.5323 699.444 LE
(U_Magnitude) 61.563 704.451 12 /Helvetica S
1.428 W
36.5374 710.459 LS
58.5599 710.459 LE
grestore
showpage
cleartomark
%%PageTrailer
%%Trailer
end
%%EOF
