%!PS-Adobe-3.0 EPSF-3.0
%%Title: ParaView GL2PS Export
%%Creator: GL2PS 1.3.8, (C) 1999-2012 C. Geuzaine
%%For: VTK
%%CreationDate: Fri Mar  2 17:17:54 2018
%%LanguageLevel: 3
%%DocumentData: Clean7Bit
%%Pages: 1
%%BoundingBox: 0 0 488 741
%%EndComments
%%BeginProlog
/gl2psdict 64 dict def gl2psdict begin
0 setlinecap 0 setlinejoin
/tryPS3shading true def % set to false to force subdivision
/rThreshold 0.064 def % red component subdivision threshold
/gThreshold 0.034 def % green component subdivision threshold
/bThreshold 0.1 def % blue component subdivision threshold
/BD { bind def } bind def
/C  { setrgbcolor } BD
/G  { 0.082 mul exch 0.6094 mul add exch 0.3086 mul add neg 1.0 add setgray } BD
/W  { setlinewidth } BD
/FC { findfont exch /SH exch def SH scalefont setfont } BD
/SW { dup stringwidth pop } BD
/S  { FC moveto show } BD
/SBC{ FC moveto SW -2 div 0 rmoveto show } BD
/SBR{ FC moveto SW neg 0 rmoveto show } BD
/SCL{ FC moveto 0 SH -2 div rmoveto show } BD
/SCC{ FC moveto SW -2 div SH -2 div rmoveto show } BD
/SCR{ FC moveto SW neg SH -2 div rmoveto show } BD
/STL{ FC moveto 0 SH neg rmoveto show } BD
/STC{ FC moveto SW -2 div SH neg rmoveto show } BD
/STR{ FC moveto SW neg SH neg rmoveto show } BD
/FCT { FC translate 0 0 } BD
/SR  { gsave FCT moveto rotate show grestore } BD
/SBCR{ gsave FCT moveto rotate SW -2 div 0 rmoveto show grestore } BD
/SBRR{ gsave FCT moveto rotate SW neg 0 rmoveto show grestore } BD
/SCLR{ gsave FCT moveto rotate 0 SH -2 div rmoveto show grestore} BD
/SCCR{ gsave FCT moveto rotate SW -2 div SH -2 div rmoveto show grestore} BD
/SCRR{ gsave FCT moveto rotate SW neg SH -2 div rmoveto show grestore} BD
/STLR{ gsave FCT moveto rotate 0 SH neg rmoveto show grestore } BD
/STCR{ gsave FCT moveto rotate SW -2 div SH neg rmoveto show grestore } BD
/STRR{ gsave FCT moveto rotate SW neg SH neg rmoveto show grestore } BD
/P  { newpath 0.0 360.0 arc closepath fill } BD
/LS { newpath moveto } BD
/L  { lineto } BD
/LE { lineto stroke } BD
/T  { newpath moveto lineto lineto closepath fill } BD
/STshfill {
      /b1 exch def /g1 exch def /r1 exch def /y1 exch def /x1 exch def
      /b2 exch def /g2 exch def /r2 exch def /y2 exch def /x2 exch def
      /b3 exch def /g3 exch def /r3 exch def /y3 exch def /x3 exch def
      gsave << /ShadingType 4 /ColorSpace [/DeviceRGB]
      /DataSource [ 0 x1 y1 r1 g1 b1 0 x2 y2 r2 g2 b2 0 x3 y3 r3 g3 b3 ] >>
      shfill grestore } BD
/Tm { 3 -1 roll 8 -1 roll 13 -1 roll add add 3 div
      3 -1 roll 7 -1 roll 11 -1 roll add add 3 div
      3 -1 roll 6 -1 roll 9 -1 roll add add 3 div C T } BD
/STsplit {
      4 index 15 index add 0.5 mul
      4 index 15 index add 0.5 mul
      4 index 15 index add 0.5 mul
      4 index 15 index add 0.5 mul
      4 index 15 index add 0.5 mul
      5 copy 5 copy 25 15 roll
      9 index 30 index add 0.5 mul
      9 index 30 index add 0.5 mul
      9 index 30 index add 0.5 mul
      9 index 30 index add 0.5 mul
      9 index 30 index add 0.5 mul
      5 copy 5 copy 35 5 roll 25 5 roll 15 5 roll
      4 index 10 index add 0.5 mul
      4 index 10 index add 0.5 mul
      4 index 10 index add 0.5 mul
      4 index 10 index add 0.5 mul
      4 index 10 index add 0.5 mul
      5 copy 5 copy 40 5 roll 25 5 roll 15 5 roll 25 5 roll
      STnoshfill STnoshfill STnoshfill STnoshfill } BD
/STnoshfill {
      2 index 8 index sub abs rThreshold gt
      { STsplit }
      { 1 index 7 index sub abs gThreshold gt
        { STsplit }
        { dup 6 index sub abs bThreshold gt
          { STsplit }
          { 2 index 13 index sub abs rThreshold gt
            { STsplit }
            { 1 index 12 index sub abs gThreshold gt
              { STsplit }
              { dup 11 index sub abs bThreshold gt
                { STsplit }
                { 7 index 13 index sub abs rThreshold gt
                  { STsplit }
                  { 6 index 12 index sub abs gThreshold gt
                    { STsplit }
                    { 5 index 11 index sub abs bThreshold gt
                      { STsplit }
                      { Tm }
                      ifelse }
                    ifelse }
                  ifelse }
                ifelse }
              ifelse }
            ifelse }
          ifelse }
        ifelse }
      ifelse } BD
tryPS3shading
{ /shfill where
  { /ST { STshfill } BD }
  { /ST { STnoshfill } BD }
  ifelse }
{ /ST { STnoshfill } BD }
ifelse
end
%%EndProlog
%%BeginSetup
/DeviceRGB setcolorspace
gl2psdict begin
%%EndSetup
%%Page: 1 1
%%BeginPageSetup
%%EndPageSetup
mark
gsave
1.0 1.0 scale
1 1 1 C
newpath 0 0 moveto 488 0 lineto 488 741 lineto 0 741 lineto
closepath fill
0.714 W
0.94902 0.94902 0.94902 C
31.5647 26.5358 LS
31.5647 721.474 LE
118.743 26.5358 LS
118.743 721.474 LE
205.922 26.5358 LS
205.922 721.474 LE
293.101 26.5358 LS
293.101 721.474 LE
380.279 26.5358 LS
380.279 721.474 LE
468.46 26.5358 LS
468.46 721.474 LE
31.5647 26.5358 LS
468.46 26.5358 LE
31.5647 66.5898 LS
468.46 66.5898 LE
31.5647 107.645 LS
468.46 107.645 LE
31.5647 148.701 LS
468.46 148.701 LE
31.5647 189.756 LS
468.46 189.756 LE
31.5647 230.811 LS
468.46 230.811 LE
31.5647 270.866 LS
468.46 270.866 LE
31.5647 311.921 LS
468.46 311.921 LE
31.5647 352.976 LS
468.46 352.976 LE
31.5647 394.032 LS
468.46 394.032 LE
31.5647 435.087 LS
468.46 435.087 LE
31.5647 476.143 LS
468.46 476.143 LE
31.5647 516.197 LS
468.46 516.197 LE
31.5647 557.252 LS
468.46 557.252 LE
31.5647 598.307 LS
468.46 598.307 LE
31.5647 639.363 LS
468.46 639.363 LE
31.5647 680.418 LS
468.46 680.418 LE
31.5647 721.474 LS
468.46 721.474 LE
1.428 W
0.219608 0.486275 0.717647 C
31.5647 721.104 LS
35.9336 721.102 L
40.3026 721.1 L
44.6716 721.088 L
49.0405 721.076 L
53.4095 721.045 L
57.7784 721.015 L
62.1474 720.956 L
66.5163 720.898 L
70.8853 720.804 L
75.2542 720.709 L
79.6232 720.571 L
83.9921 720.432 L
88.3611 720.243 L
92.73 720.053 L
97.099 719.806 L
101.468 719.559 L
105.837 719.25 L
110.206 718.941 L
114.575 718.566 L
118.944 718.19 L
123.313 717.745 L
127.682 717.299 L
132.051 716.78 L
136.42 716.262 L
140.789 715.669 L
145.157 715.076 L
149.526 714.409 L
153.895 713.741 L
158.264 712.998 L
162.633 712.255 L
167.002 711.436 L
171.371 710.617 L
175.74 709.725 L
180.109 708.832 L
184.478 707.865 L
188.847 706.898 L
193.216 705.859 L
197.585 704.821 L
201.954 703.711 L
206.323 702.602 L
210.692 701.423 L
215.061 700.244 L
219.43 698.998 L
223.799 697.752 L
228.168 696.44 L
232.537 695.127 L
236.905 693.752 L
241.274 692.376 L
245.643 690.94 L
250.012 689.503 L
254.381 688.008 L
258.75 686.513 L
263.119 684.962 L
267.488 683.411 L
271.857 681.808 L
276.226 680.205 L
280.595 678.552 L
284.964 676.9 L
289.333 675.202 L
293.702 673.505 L
298.071 671.768 L
302.44 670.031 L
306.809 668.261 L
311.178 666.491 L
315.547 664.694 L
319.916 662.897 L
324.285 661.083 L
328.654 659.269 L
333.022 657.445 L
337.391 655.622 L
341.76 653.801 L
346.129 651.98 L
350.498 650.173 L
354.867 648.366 L
359.236 646.587 L
363.605 644.808 L
367.974 643.072 L
372.343 641.336 L
376.712 639.657 L
381.081 637.979 L
385.45 636.377 L
389.819 634.774 L
394.188 633.266 L
398.557 631.757 L
402.926 630.36 L
407.295 628.963 L
411.664 627.698 L
416.033 626.432 L
420.402 625.316 L
424.771 624.2 L
429.139 623.253 L
433.508 622.305 L
437.877 621.543 L
442.246 620.78 L
446.615 620.22 L
450.984 619.66 L
455.353 619.317 L
459.722 618.974 L
464.091 618.859 L
468.46 618.743 LE
0 0 0 C
31.5647 26.5358 LS
35.9336 37.7166 L
40.3026 48.8975 L
44.6716 59.7559 L
49.0405 70.6143 L
53.4095 81.0643 L
57.7784 91.5144 L
62.1474 101.475 L
66.5163 111.436 L
70.8853 120.836 L
75.2542 130.235 L
79.6232 139.011 L
83.9921 147.788 L
88.3611 155.892 L
92.73 163.997 L
97.099 171.396 L
101.468 178.796 L
105.837 185.473 L
110.206 192.151 L
114.575 198.105 L
118.944 204.059 L
123.313 209.303 L
127.682 214.548 L
132.051 219.111 L
136.42 223.674 L
140.789 227.595 L
145.157 231.516 L
149.526 234.844 L
153.895 238.171 L
158.264 240.959 L
162.633 243.748 L
167.002 246.055 L
171.371 248.363 L
175.74 250.249 L
180.109 252.135 L
184.478 253.657 L
188.847 255.18 L
193.216 256.392 L
197.585 257.605 L
201.954 258.558 L
206.323 259.512 L
210.692 260.252 L
215.061 260.992 L
219.43 261.56 L
223.799 262.127 L
228.168 262.554 L
232.537 262.981 L
236.905 263.298 L
241.274 263.615 L
245.643 263.845 L
250.012 264.075 L
254.381 264.236 L
258.75 264.397 L
263.119 264.504 L
267.488 264.612 L
271.857 264.679 L
276.226 264.745 L
280.595 264.778 L
284.964 264.812 L
289.333 264.817 L
293.702 264.823 L
298.071 264.805 L
302.44 264.788 L
306.809 264.751 L
311.178 264.715 L
315.547 264.66 L
319.916 264.606 L
324.285 264.536 L
328.654 264.465 L
333.022 264.379 L
337.391 264.292 L
341.76 264.191 L
346.129 264.09 L
350.498 263.976 L
354.867 263.861 L
359.236 263.735 L
363.605 263.61 L
367.974 263.474 L
372.343 263.338 L
376.712 263.193 L
381.081 263.049 L
385.45 262.899 L
389.819 262.749 L
394.188 262.598 L
398.557 262.447 L
402.926 262.298 L
407.295 262.148 L
411.664 262.005 L
416.033 261.862 L
420.402 261.729 L
424.771 261.596 L
429.139 261.477 L
433.508 261.358 L
437.877 261.257 L
442.246 261.155 L
446.615 261.074 L
450.984 260.993 L
455.353 260.936 L
459.722 260.879 L
464.091 260.856 L
468.46 260.834 LE
0.714 W
31.5647 26.5358 LS
31.5647 721.474 LE
(0) 24.5503 26.5358 12 /Helvetica SCR
26.5544 26.5358 LS
31.5647 26.5358 LE
(0.2) 24.5503 66.5898 12 /Helvetica SCR
26.5544 66.5898 LS
31.5647 66.5898 LE
(0.4) 24.5503 107.645 12 /Helvetica SCR
26.5544 107.645 LS
31.5647 107.645 LE
(0.6) 24.5503 148.701 12 /Helvetica SCR
26.5544 148.701 LS
31.5647 148.701 LE
(0.8) 24.5503 189.756 12 /Helvetica SCR
26.5544 189.756 LS
31.5647 189.756 LE
(1) 24.5503 230.811 12 /Helvetica SCR
26.5544 230.811 LS
31.5647 230.811 LE
(1.2) 24.5503 270.866 12 /Helvetica SCR
26.5544 270.866 LS
31.5647 270.866 LE
(1.4) 24.5503 311.921 12 /Helvetica SCR
26.5544 311.921 LS
31.5647 311.921 LE
(1.6) 24.5503 352.976 12 /Helvetica SCR
26.5544 352.976 LS
31.5647 352.976 LE
(1.8) 24.5503 394.032 12 /Helvetica SCR
26.5544 394.032 LS
31.5647 394.032 LE
(2) 24.5503 435.087 12 /Helvetica SCR
26.5544 435.087 LS
31.5647 435.087 LE
(2.2) 24.5503 476.143 12 /Helvetica SCR
26.5544 476.143 LS
31.5647 476.143 LE
(2.4) 24.5503 516.197 12 /Helvetica SCR
26.5544 516.197 LS
31.5647 516.197 LE
(2.6) 24.5503 557.252 12 /Helvetica SCR
26.5544 557.252 LS
31.5647 557.252 LE
(2.8) 24.5503 598.307 12 /Helvetica SCR
26.5544 598.307 LS
31.5647 598.307 LE
(3) 24.5503 639.363 12 /Helvetica SCR
26.5544 639.363 LS
31.5647 639.363 LE
(3.2) 24.5503 680.418 12 /Helvetica SCR
26.5544 680.418 LS
31.5647 680.418 LE
(3.4) 24.5503 721.474 12 /Helvetica SCR
26.5544 721.474 LS
31.5647 721.474 LE
31.5647 26.5358 LS
468.46 26.5358 LE
(0) 31.5647 19.5264 12 /Helvetica STC
31.5647 21.5291 LS
31.5647 26.5358 LE
(0.2) 118.743 19.5264 12 /Helvetica STC
118.743 21.5291 LS
118.743 26.5358 LE
(0.4) 205.922 19.5264 12 /Helvetica STC
205.922 21.5291 LS
205.922 26.5358 LE
(0.6) 293.101 19.5264 12 /Helvetica STC
293.101 21.5291 LS
293.101 26.5358 LE
(0.8) 380.279 19.5264 12 /Helvetica STC
380.279 21.5291 LS
380.279 26.5358 LE
(1) 468.46 19.5264 12 /Helvetica STC
468.46 21.5291 LS
468.46 26.5358 LE
1 1 1 C
356.23 721.474 468.46 682.421 356.23 682.421 T
356.23 721.474 468.46 721.474 468.46 682.421 T
0 0 0 C
356.23 682.421 LS
468.46 682.421 L
468.46 721.474 L
356.23 721.474 L
356.23 682.421 LE
(p_rgh) 386.292 704.451 12 /Helvetica S
1.428 W
0.219608 0.486275 0.717647 C
361.24 710.459 LS
383.285 710.459 LE
0 0 0 C
(U_Magnitude) 386.292 687.428 12 /Helvetica S
361.24 693.436 LS
383.285 693.436 LE
grestore
showpage
cleartomark
%%PageTrailer
%%Trailer
end
%%EOF
