%!PS-Adobe-3.0 EPSF-3.0
%%Title: ParaView GL2PS Export
%%Creator: GL2PS 1.3.8, (C) 1999-2012 C. Geuzaine
%%For: VTK
%%CreationDate: Wed Mar  7 09:37:05 2018
%%LanguageLevel: 3
%%DocumentData: Clean7Bit
%%Pages: 1
%%BoundingBox: 0 0 963 741
%%EndComments
%%BeginProlog
/gl2psdict 64 dict def gl2psdict begin
0 setlinecap 0 setlinejoin
/tryPS3shading true def % set to false to force subdivision
/rThreshold 0.064 def % red component subdivision threshold
/gThreshold 0.034 def % green component subdivision threshold
/bThreshold 0.1 def % blue component subdivision threshold
/BD { bind def } bind def
/C  { setrgbcolor } BD
/G  { 0.082 mul exch 0.6094 mul add exch 0.3086 mul add neg 1.0 add setgray } BD
/W  { setlinewidth } BD
/FC { findfont exch /SH exch def SH scalefont setfont } BD
/SW { dup stringwidth pop } BD
/S  { FC moveto show } BD
/SBC{ FC moveto SW -2 div 0 rmoveto show } BD
/SBR{ FC moveto SW neg 0 rmoveto show } BD
/SCL{ FC moveto 0 SH -2 div rmoveto show } BD
/SCC{ FC moveto SW -2 div SH -2 div rmoveto show } BD
/SCR{ FC moveto SW neg SH -2 div rmoveto show } BD
/STL{ FC moveto 0 SH neg rmoveto show } BD
/STC{ FC moveto SW -2 div SH neg rmoveto show } BD
/STR{ FC moveto SW neg SH neg rmoveto show } BD
/FCT { FC translate 0 0 } BD
/SR  { gsave FCT moveto rotate show grestore } BD
/SBCR{ gsave FCT moveto rotate SW -2 div 0 rmoveto show grestore } BD
/SBRR{ gsave FCT moveto rotate SW neg 0 rmoveto show grestore } BD
/SCLR{ gsave FCT moveto rotate 0 SH -2 div rmoveto show grestore} BD
/SCCR{ gsave FCT moveto rotate SW -2 div SH -2 div rmoveto show grestore} BD
/SCRR{ gsave FCT moveto rotate SW neg SH -2 div rmoveto show grestore} BD
/STLR{ gsave FCT moveto rotate 0 SH neg rmoveto show grestore } BD
/STCR{ gsave FCT moveto rotate SW -2 div SH neg rmoveto show grestore } BD
/STRR{ gsave FCT moveto rotate SW neg SH neg rmoveto show grestore } BD
/P  { newpath 0.0 360.0 arc closepath fill } BD
/LS { newpath moveto } BD
/L  { lineto } BD
/LE { lineto stroke } BD
/T  { newpath moveto lineto lineto closepath fill } BD
/STshfill {
      /b1 exch def /g1 exch def /r1 exch def /y1 exch def /x1 exch def
      /b2 exch def /g2 exch def /r2 exch def /y2 exch def /x2 exch def
      /b3 exch def /g3 exch def /r3 exch def /y3 exch def /x3 exch def
      gsave << /ShadingType 4 /ColorSpace [/DeviceRGB]
      /DataSource [ 0 x1 y1 r1 g1 b1 0 x2 y2 r2 g2 b2 0 x3 y3 r3 g3 b3 ] >>
      shfill grestore } BD
/Tm { 3 -1 roll 8 -1 roll 13 -1 roll add add 3 div
      3 -1 roll 7 -1 roll 11 -1 roll add add 3 div
      3 -1 roll 6 -1 roll 9 -1 roll add add 3 div C T } BD
/STsplit {
      4 index 15 index add 0.5 mul
      4 index 15 index add 0.5 mul
      4 index 15 index add 0.5 mul
      4 index 15 index add 0.5 mul
      4 index 15 index add 0.5 mul
      5 copy 5 copy 25 15 roll
      9 index 30 index add 0.5 mul
      9 index 30 index add 0.5 mul
      9 index 30 index add 0.5 mul
      9 index 30 index add 0.5 mul
      9 index 30 index add 0.5 mul
      5 copy 5 copy 35 5 roll 25 5 roll 15 5 roll
      4 index 10 index add 0.5 mul
      4 index 10 index add 0.5 mul
      4 index 10 index add 0.5 mul
      4 index 10 index add 0.5 mul
      4 index 10 index add 0.5 mul
      5 copy 5 copy 40 5 roll 25 5 roll 15 5 roll 25 5 roll
      STnoshfill STnoshfill STnoshfill STnoshfill } BD
/STnoshfill {
      2 index 8 index sub abs rThreshold gt
      { STsplit }
      { 1 index 7 index sub abs gThreshold gt
        { STsplit }
        { dup 6 index sub abs bThreshold gt
          { STsplit }
          { 2 index 13 index sub abs rThreshold gt
            { STsplit }
            { 1 index 12 index sub abs gThreshold gt
              { STsplit }
              { dup 11 index sub abs bThreshold gt
                { STsplit }
                { 7 index 13 index sub abs rThreshold gt
                  { STsplit }
                  { 6 index 12 index sub abs gThreshold gt
                    { STsplit }
                    { 5 index 11 index sub abs bThreshold gt
                      { STsplit }
                      { Tm }
                      ifelse }
                    ifelse }
                  ifelse }
                ifelse }
              ifelse }
            ifelse }
          ifelse }
        ifelse }
      ifelse } BD
tryPS3shading
{ /shfill where
  { /ST { STshfill } BD }
  { /ST { STnoshfill } BD }
  ifelse }
{ /ST { STnoshfill } BD }
ifelse
end
%%EndProlog
%%BeginSetup
/DeviceRGB setcolorspace
gl2psdict begin
%%EndSetup
%%Page: 1 1
%%BeginPageSetup
%%EndPageSetup
mark
gsave
1.0 1.0 scale
1 1 1 C
newpath 0 0 moveto 963 0 lineto 963 741 lineto 0 741 lineto
closepath fill
0.714 W
0.94902 0.94902 0.94902 C
31.5327 26.5358 LS
31.5327 721.474 LE
76.5795 26.5358 LS
76.5795 721.474 LE
122.627 26.5358 LS
122.627 721.474 LE
167.674 26.5358 LS
167.674 721.474 LE
213.722 26.5358 LS
213.722 721.474 LE
258.769 26.5358 LS
258.769 721.474 LE
304.817 26.5358 LS
304.817 721.474 LE
349.863 26.5358 LS
349.863 721.474 LE
395.911 26.5358 LS
395.911 721.474 LE
440.958 26.5358 LS
440.958 721.474 LE
487.006 26.5358 LS
487.006 721.474 LE
533.054 26.5358 LS
533.054 721.474 LE
578.1 26.5358 LS
578.1 721.474 LE
624.148 26.5358 LS
624.148 721.474 LE
669.195 26.5358 LS
669.195 721.474 LE
715.243 26.5358 LS
715.243 721.474 LE
760.29 26.5358 LS
760.29 721.474 LE
806.337 26.5358 LS
806.337 721.474 LE
851.384 26.5358 LS
851.384 721.474 LE
897.432 26.5358 LS
897.432 721.474 LE
31.5327 26.5358 LS
943.48 26.5358 LE
31.5327 79.6074 LS
943.48 79.6074 LE
31.5327 132.679 LS
943.48 132.679 LE
31.5327 186.752 LS
943.48 186.752 LE
31.5327 239.824 LS
943.48 239.824 LE
31.5327 292.895 LS
943.48 292.895 LE
31.5327 346.968 LS
943.48 346.968 LE
31.5327 400.04 LS
943.48 400.04 LE
31.5327 454.113 LS
943.48 454.113 LE
31.5327 507.184 LS
943.48 507.184 LE
31.5327 560.256 LS
943.48 560.256 LE
31.5327 614.329 LS
943.48 614.329 LE
31.5327 667.401 LS
943.48 667.401 LE
31.5327 721.474 LS
943.48 721.474 LE
1.428 W
0.219608 0.486275 0.717647 C
31.5327 619.141 LS
40.6522 619.124 L
49.7717 619.107 L
58.8912 619.053 L
68.0106 619 L
77.1301 618.91 L
86.2496 618.821 L
95.369 618.697 L
104.489 618.573 L
113.608 618.415 L
122.727 618.257 L
131.847 618.066 L
140.966 617.874 L
150.086 617.65 L
159.205 617.425 L
168.325 617.167 L
177.444 616.91 L
186.564 616.621 L
195.683 616.332 L
204.803 616.014 L
213.922 615.696 L
223.042 615.35 L
232.161 615.004 L
241.281 614.631 L
250.4 614.258 L
259.52 613.858 L
268.639 613.459 L
277.758 613.036 L
286.878 612.612 L
295.997 612.167 L
305.117 611.722 L
314.236 611.257 L
323.356 610.791 L
332.475 610.308 L
341.595 609.824 L
350.714 609.324 L
359.834 608.824 L
368.953 608.31 L
378.073 607.795 L
387.192 607.268 L
396.312 606.74 L
405.431 606.202 L
414.55 605.664 L
423.67 605.117 L
432.789 604.571 L
441.909 604.018 L
451.028 603.465 L
460.148 602.908 L
469.267 602.351 L
478.387 601.791 L
487.506 601.231 L
496.626 600.672 L
505.745 600.112 L
514.865 599.555 L
523.984 598.998 L
533.104 598.444 L
542.223 597.89 L
551.343 597.342 L
560.462 596.795 L
569.581 596.256 L
578.701 595.717 L
587.82 595.188 L
596.94 594.66 L
606.059 594.143 L
615.179 593.627 L
624.298 593.125 L
633.418 592.624 L
642.537 592.138 L
651.657 591.653 L
660.776 591.186 L
669.896 590.719 L
679.015 590.271 L
688.135 589.824 L
697.254 589.399 L
706.374 588.974 L
715.493 588.573 L
724.612 588.172 L
733.732 587.797 L
742.851 587.421 L
751.971 587.072 L
761.09 586.723 L
770.21 586.403 L
779.329 586.083 L
788.449 585.792 L
797.568 585.501 L
806.688 585.241 L
815.807 584.981 L
824.927 584.754 L
834.046 584.527 L
843.166 584.333 L
852.285 584.139 L
861.405 583.979 L
870.524 583.819 L
879.644 583.694 L
888.763 583.569 L
897.882 583.479 L
907.002 583.39 L
916.121 583.336 L
925.241 583.283 L
934.36 583.265 L
943.48 583.247 LE
0.886275 0.0980392 0.109804 C
31.5327 202.957 LS
40.6522 202.953 L
49.7717 202.95 L
58.8912 202.932 L
68.0106 202.915 L
77.1301 202.87 L
86.2496 202.825 L
95.369 202.738 L
104.489 202.651 L
113.608 202.51 L
122.727 202.369 L
131.847 202.16 L
140.966 201.951 L
150.086 201.662 L
159.205 201.373 L
168.325 200.993 L
177.444 200.613 L
186.564 200.13 L
195.683 199.648 L
204.803 199.053 L
213.922 198.459 L
223.042 197.743 L
232.161 197.028 L
241.281 196.183 L
250.4 195.339 L
259.52 194.359 L
268.639 193.379 L
277.758 192.257 L
286.878 191.135 L
295.997 189.868 L
305.117 188.601 L
314.236 187.184 L
323.356 185.768 L
332.475 184.2 L
341.595 182.633 L
350.714 180.914 L
359.834 179.195 L
368.953 177.325 L
378.073 175.456 L
387.192 173.437 L
396.312 171.417 L
405.431 169.253 L
414.55 167.088 L
423.67 164.782 L
432.789 162.475 L
441.909 160.034 L
451.028 157.592 L
460.148 155.022 L
469.267 152.451 L
478.387 149.761 L
487.506 147.071 L
496.626 144.27 L
505.745 141.47 L
514.865 138.57 L
523.984 135.67 L
533.104 132.683 L
542.223 129.696 L
551.343 126.635 L
560.462 123.573 L
569.581 120.453 L
578.701 117.333 L
587.82 114.169 L
596.94 111.005 L
606.059 107.814 L
615.179 104.623 L
624.298 101.423 L
633.418 98.2225 L
642.537 95.0319 L
651.657 91.8411 L
660.776 88.6792 L
669.896 85.5172 L
679.015 82.4043 L
688.135 79.2914 L
697.254 76.2484 L
706.374 73.2054 L
715.493 70.2536 L
724.612 67.3018 L
733.732 64.4631 L
742.851 61.6243 L
751.971 58.9208 L
761.09 56.2172 L
770.21 53.671 L
779.329 51.1249 L
788.449 48.7585 L
797.568 46.3921 L
806.688 44.2277 L
815.807 42.0632 L
824.927 40.1226 L
834.046 38.182 L
843.166 36.4872 L
852.285 34.7924 L
861.405 33.3632 L
870.524 31.934 L
879.644 30.7947 L
888.763 29.6555 L
897.882 28.8135 L
907.002 27.9714 L
916.121 27.4791 L
925.241 26.9867 L
934.36 26.7612 L
943.48 26.5358 LE
0.647059 0.337255 0.156863 C
31.5327 26.5358 LS
40.6522 46.8683 L
49.7717 67.2008 L
58.8912 87.059 L
68.0106 106.917 L
77.1301 126.272 L
86.2496 145.626 L
95.369 164.445 L
104.489 183.264 L
113.608 201.513 L
122.727 219.762 L
131.847 237.41 L
140.966 255.058 L
150.086 272.072 L
159.205 289.087 L
168.325 305.44 L
177.444 321.793 L
186.564 337.46 L
195.683 353.127 L
204.803 368.087 L
213.922 383.046 L
223.042 397.28 L
232.161 411.514 L
241.281 425.011 L
250.4 438.507 L
259.52 451.258 L
268.639 464.008 L
277.758 476.009 L
286.878 488.009 L
295.997 499.261 L
305.117 510.513 L
314.236 521.022 L
323.356 531.53 L
332.475 541.306 L
341.595 551.082 L
350.714 560.138 L
359.834 569.194 L
368.953 577.549 L
378.073 585.905 L
387.192 593.583 L
396.312 601.26 L
405.431 608.283 L
414.55 615.306 L
423.67 621.701 L
432.789 628.096 L
441.909 633.894 L
451.028 639.693 L
460.148 644.926 L
469.267 650.16 L
478.387 654.86 L
487.506 659.56 L
496.626 663.76 L
505.745 667.96 L
514.865 671.696 L
523.984 675.432 L
533.104 678.737 L
542.223 682.042 L
551.343 684.949 L
560.462 687.857 L
569.581 690.4 L
578.701 692.944 L
587.82 695.156 L
596.94 697.367 L
606.059 699.279 L
615.179 701.19 L
624.298 702.83 L
633.418 704.47 L
642.537 705.867 L
651.657 707.265 L
660.776 708.446 L
669.896 709.628 L
679.015 710.618 L
688.135 711.608 L
697.254 712.43 L
706.374 713.251 L
715.493 713.925 L
724.612 714.599 L
733.732 715.146 L
742.851 715.694 L
751.971 716.132 L
761.09 716.57 L
770.21 716.916 L
779.329 717.262 L
788.449 717.529 L
797.568 717.796 L
806.688 717.998 L
815.807 718.2 L
824.927 718.349 L
834.046 718.499 L
843.166 718.606 L
852.285 718.714 L
861.405 718.787 L
870.524 718.861 L
879.644 718.911 L
888.763 718.962 L
897.882 718.992 L
907.002 719.021 L
916.121 719.055 L
925.241 719.089 L
934.36 719.115 L
943.48 719.141 LE
0.714 W
0 0 0 C
31.5327 26.5358 LS
31.5327 721.474 LE
(0) 24.5255 26.5358 12 /Helvetica SCR
26.5275 26.5358 LS
31.5327 26.5358 LE
(0.1) 24.5255 79.6074 12 /Helvetica SCR
26.5275 79.6074 LS
31.5327 79.6074 LE
(0.2) 24.5255 132.679 12 /Helvetica SCR
26.5275 132.679 LS
31.5327 132.679 LE
(0.3) 24.5255 186.752 12 /Helvetica SCR
26.5275 186.752 LS
31.5327 186.752 LE
(0.4) 24.5255 239.824 12 /Helvetica SCR
26.5275 239.824 LS
31.5327 239.824 LE
(0.5) 24.5255 292.895 12 /Helvetica SCR
26.5275 292.895 LS
31.5327 292.895 LE
(0.6) 24.5255 346.968 12 /Helvetica SCR
26.5275 346.968 LS
31.5327 346.968 LE
(0.7) 24.5255 400.04 12 /Helvetica SCR
26.5275 400.04 LS
31.5327 400.04 LE
(0.8) 24.5255 454.113 12 /Helvetica SCR
26.5275 454.113 LS
31.5327 454.113 LE
(0.9) 24.5255 507.184 12 /Helvetica SCR
26.5275 507.184 LS
31.5327 507.184 LE
(1) 24.5255 560.256 12 /Helvetica SCR
26.5275 560.256 LS
31.5327 560.256 LE
(1.1) 24.5255 614.329 12 /Helvetica SCR
26.5275 614.329 LS
31.5327 614.329 LE
(1.2) 24.5255 667.401 12 /Helvetica SCR
26.5275 667.401 LS
31.5327 667.401 LE
(1.3) 24.5255 721.474 12 /Helvetica SCR
26.5275 721.474 LS
31.5327 721.474 LE
31.5327 26.5358 LS
943.48 26.5358 LE
(0) 31.5327 19.5264 12 /Helvetica STC
31.5327 21.5291 LS
31.5327 26.5358 LE
(0.05) 76.5795 19.5264 12 /Helvetica STC
76.5795 21.5291 LS
76.5795 26.5358 LE
(0.1) 122.627 19.5264 12 /Helvetica STC
122.627 21.5291 LS
122.627 26.5358 LE
(0.15) 167.674 19.5264 12 /Helvetica STC
167.674 21.5291 LS
167.674 26.5358 LE
(0.2) 213.722 19.5264 12 /Helvetica STC
213.722 21.5291 LS
213.722 26.5358 LE
(0.25) 258.769 19.5264 12 /Helvetica STC
258.769 21.5291 LS
258.769 26.5358 LE
(0.3) 304.817 19.5264 12 /Helvetica STC
304.817 21.5291 LS
304.817 26.5358 LE
(0.35) 349.863 19.5264 12 /Helvetica STC
349.863 21.5291 LS
349.863 26.5358 LE
(0.4) 395.911 19.5264 12 /Helvetica STC
395.911 21.5291 LS
395.911 26.5358 LE
(0.45) 440.958 19.5264 12 /Helvetica STC
440.958 21.5291 LS
440.958 26.5358 LE
(0.5) 487.006 19.5264 12 /Helvetica STC
487.006 21.5291 LS
487.006 26.5358 LE
(0.55) 533.054 19.5264 12 /Helvetica STC
533.054 21.5291 LS
533.054 26.5358 LE
(0.6) 578.1 19.5264 12 /Helvetica STC
578.1 21.5291 LS
578.1 26.5358 LE
(0.65) 624.148 19.5264 12 /Helvetica STC
624.148 21.5291 LS
624.148 26.5358 LE
(0.7) 669.195 19.5264 12 /Helvetica STC
669.195 21.5291 LS
669.195 26.5358 LE
(0.75) 715.243 19.5264 12 /Helvetica STC
715.243 21.5291 LS
715.243 26.5358 LE
(0.8) 760.29 19.5264 12 /Helvetica STC
760.29 21.5291 LS
760.29 26.5358 LE
(0.85) 806.337 19.5264 12 /Helvetica STC
806.337 21.5291 LS
806.337 26.5358 LE
(0.9) 851.384 19.5264 12 /Helvetica STC
851.384 21.5291 LS
851.384 26.5358 LE
(0.95) 897.432 19.5264 12 /Helvetica STC
897.432 21.5291 LS
897.432 26.5358 LE
1 1 1 C
831.363 721.474 943.48 665.398 831.363 665.398 T
831.363 721.474 943.48 721.474 943.48 665.398 T
0 0 0 C
831.363 665.398 LS
943.48 665.398 L
943.48 721.474 L
831.363 721.474 L
831.363 665.398 LE
(rhok) 861.395 704.451 12 /Helvetica S
1.428 W
0.219608 0.486275 0.717647 C
836.368 710.459 LS
858.391 710.459 LE
0 0 0 C
(p_rgh) 861.395 687.428 12 /Helvetica S
0.886275 0.0980392 0.109804 C
836.368 693.436 LS
858.391 693.436 LE
0 0 0 C
(U_Magnitude) 861.395 670.405 12 /Helvetica S
0.647059 0.337255 0.156863 C
836.368 676.413 LS
858.391 676.413 LE
grestore
showpage
cleartomark
%%PageTrailer
%%Trailer
end
%%EOF
