%!PS-Adobe-3.0 EPSF-3.0
%%Title: ParaView GL2PS Export
%%Creator: GL2PS 1.3.8, (C) 1999-2012 C. Geuzaine
%%For: VTK
%%CreationDate: Wed Mar  7 14:19:26 2018
%%LanguageLevel: 3
%%DocumentData: Clean7Bit
%%Pages: 1
%%BoundingBox: 0 0 963 741
%%EndComments
%%BeginProlog
/gl2psdict 64 dict def gl2psdict begin
0 setlinecap 0 setlinejoin
/tryPS3shading true def % set to false to force subdivision
/rThreshold 0.064 def % red component subdivision threshold
/gThreshold 0.034 def % green component subdivision threshold
/bThreshold 0.1 def % blue component subdivision threshold
/BD { bind def } bind def
/C  { setrgbcolor } BD
/G  { 0.082 mul exch 0.6094 mul add exch 0.3086 mul add neg 1.0 add setgray } BD
/W  { setlinewidth } BD
/FC { findfont exch /SH exch def SH scalefont setfont } BD
/SW { dup stringwidth pop } BD
/S  { FC moveto show } BD
/SBC{ FC moveto SW -2 div 0 rmoveto show } BD
/SBR{ FC moveto SW neg 0 rmoveto show } BD
/SCL{ FC moveto 0 SH -2 div rmoveto show } BD
/SCC{ FC moveto SW -2 div SH -2 div rmoveto show } BD
/SCR{ FC moveto SW neg SH -2 div rmoveto show } BD
/STL{ FC moveto 0 SH neg rmoveto show } BD
/STC{ FC moveto SW -2 div SH neg rmoveto show } BD
/STR{ FC moveto SW neg SH neg rmoveto show } BD
/FCT { FC translate 0 0 } BD
/SR  { gsave FCT moveto rotate show grestore } BD
/SBCR{ gsave FCT moveto rotate SW -2 div 0 rmoveto show grestore } BD
/SBRR{ gsave FCT moveto rotate SW neg 0 rmoveto show grestore } BD
/SCLR{ gsave FCT moveto rotate 0 SH -2 div rmoveto show grestore} BD
/SCCR{ gsave FCT moveto rotate SW -2 div SH -2 div rmoveto show grestore} BD
/SCRR{ gsave FCT moveto rotate SW neg SH -2 div rmoveto show grestore} BD
/STLR{ gsave FCT moveto rotate 0 SH neg rmoveto show grestore } BD
/STCR{ gsave FCT moveto rotate SW -2 div SH neg rmoveto show grestore } BD
/STRR{ gsave FCT moveto rotate SW neg SH neg rmoveto show grestore } BD
/P  { newpath 0.0 360.0 arc closepath fill } BD
/LS { newpath moveto } BD
/L  { lineto } BD
/LE { lineto stroke } BD
/T  { newpath moveto lineto lineto closepath fill } BD
/STshfill {
      /b1 exch def /g1 exch def /r1 exch def /y1 exch def /x1 exch def
      /b2 exch def /g2 exch def /r2 exch def /y2 exch def /x2 exch def
      /b3 exch def /g3 exch def /r3 exch def /y3 exch def /x3 exch def
      gsave << /ShadingType 4 /ColorSpace [/DeviceRGB]
      /DataSource [ 0 x1 y1 r1 g1 b1 0 x2 y2 r2 g2 b2 0 x3 y3 r3 g3 b3 ] >>
      shfill grestore } BD
/Tm { 3 -1 roll 8 -1 roll 13 -1 roll add add 3 div
      3 -1 roll 7 -1 roll 11 -1 roll add add 3 div
      3 -1 roll 6 -1 roll 9 -1 roll add add 3 div C T } BD
/STsplit {
      4 index 15 index add 0.5 mul
      4 index 15 index add 0.5 mul
      4 index 15 index add 0.5 mul
      4 index 15 index add 0.5 mul
      4 index 15 index add 0.5 mul
      5 copy 5 copy 25 15 roll
      9 index 30 index add 0.5 mul
      9 index 30 index add 0.5 mul
      9 index 30 index add 0.5 mul
      9 index 30 index add 0.5 mul
      9 index 30 index add 0.5 mul
      5 copy 5 copy 35 5 roll 25 5 roll 15 5 roll
      4 index 10 index add 0.5 mul
      4 index 10 index add 0.5 mul
      4 index 10 index add 0.5 mul
      4 index 10 index add 0.5 mul
      4 index 10 index add 0.5 mul
      5 copy 5 copy 40 5 roll 25 5 roll 15 5 roll 25 5 roll
      STnoshfill STnoshfill STnoshfill STnoshfill } BD
/STnoshfill {
      2 index 8 index sub abs rThreshold gt
      { STsplit }
      { 1 index 7 index sub abs gThreshold gt
        { STsplit }
        { dup 6 index sub abs bThreshold gt
          { STsplit }
          { 2 index 13 index sub abs rThreshold gt
            { STsplit }
            { 1 index 12 index sub abs gThreshold gt
              { STsplit }
              { dup 11 index sub abs bThreshold gt
                { STsplit }
                { 7 index 13 index sub abs rThreshold gt
                  { STsplit }
                  { 6 index 12 index sub abs gThreshold gt
                    { STsplit }
                    { 5 index 11 index sub abs bThreshold gt
                      { STsplit }
                      { Tm }
                      ifelse }
                    ifelse }
                  ifelse }
                ifelse }
              ifelse }
            ifelse }
          ifelse }
        ifelse }
      ifelse } BD
tryPS3shading
{ /shfill where
  { /ST { STshfill } BD }
  { /ST { STnoshfill } BD }
  ifelse }
{ /ST { STnoshfill } BD }
ifelse
end
%%EndProlog
%%BeginSetup
/DeviceRGB setcolorspace
gl2psdict begin
%%EndSetup
%%Page: 1 1
%%BeginPageSetup
%%EndPageSetup
mark
gsave
1.0 1.0 scale
1 1 1 C
newpath 0 0 moveto 963 0 lineto 963 741 lineto 0 741 lineto
closepath fill
0.714 W
0.94902 0.94902 0.94902 C
31.5327 26.5358 LS
31.5327 721.474 LE
76.5795 26.5358 LS
76.5795 721.474 LE
122.627 26.5358 LS
122.627 721.474 LE
167.674 26.5358 LS
167.674 721.474 LE
213.722 26.5358 LS
213.722 721.474 LE
258.769 26.5358 LS
258.769 721.474 LE
304.817 26.5358 LS
304.817 721.474 LE
349.863 26.5358 LS
349.863 721.474 LE
395.911 26.5358 LS
395.911 721.474 LE
440.958 26.5358 LS
440.958 721.474 LE
487.006 26.5358 LS
487.006 721.474 LE
533.054 26.5358 LS
533.054 721.474 LE
578.1 26.5358 LS
578.1 721.474 LE
624.148 26.5358 LS
624.148 721.474 LE
669.195 26.5358 LS
669.195 721.474 LE
715.243 26.5358 LS
715.243 721.474 LE
760.29 26.5358 LS
760.29 721.474 LE
806.337 26.5358 LS
806.337 721.474 LE
851.384 26.5358 LS
851.384 721.474 LE
897.432 26.5358 LS
897.432 721.474 LE
31.5327 26.5358 LS
943.48 26.5358 LE
31.5327 72.598 LS
943.48 72.598 LE
31.5327 118.66 LS
943.48 118.66 LE
31.5327 164.722 LS
943.48 164.722 LE
31.5327 211.786 LS
943.48 211.786 LE
31.5327 257.848 LS
943.48 257.848 LE
31.5327 303.91 LS
943.48 303.91 LE
31.5327 349.972 LS
943.48 349.972 LE
31.5327 397.036 LS
943.48 397.036 LE
31.5327 443.098 LS
943.48 443.098 LE
31.5327 489.16 LS
943.48 489.16 LE
31.5327 535.222 LS
943.48 535.222 LE
31.5327 582.286 LS
943.48 582.286 LE
31.5327 628.348 LS
943.48 628.348 LE
31.5327 674.41 LS
943.48 674.41 LE
1.428 W
0.219608 0.486275 0.717647 C
31.5327 540.174 LS
40.6522 540.164 L
49.7717 540.14 L
58.8912 540.102 L
68.0106 540.048 L
77.1301 539.977 L
86.2496 539.893 L
95.369 539.794 L
104.489 539.679 L
113.608 539.548 L
122.727 539.402 L
131.847 539.243 L
140.966 539.067 L
150.086 538.879 L
159.205 538.678 L
168.325 538.46 L
177.444 538.229 L
186.564 537.985 L
195.683 537.73 L
204.803 537.459 L
213.922 537.176 L
223.042 536.88 L
232.161 536.573 L
241.281 536.254 L
250.4 535.924 L
259.52 535.583 L
268.639 535.228 L
277.758 534.866 L
286.878 534.493 L
295.997 534.11 L
305.117 533.717 L
314.236 533.317 L
323.356 532.91 L
332.475 532.492 L
341.595 532.068 L
350.714 531.634 L
359.834 531.193 L
368.953 530.748 L
378.073 530.297 L
387.192 529.839 L
396.312 529.378 L
405.431 528.911 L
414.55 528.441 L
423.67 527.966 L
432.789 527.488 L
441.909 527.006 L
451.028 526.521 L
460.148 526.039 L
469.267 525.55 L
478.387 525.063 L
487.506 524.576 L
496.626 524.087 L
505.745 523.601 L
514.865 523.115 L
523.984 522.628 L
533.104 522.146 L
542.223 521.664 L
551.343 521.186 L
560.462 520.712 L
569.581 520.242 L
578.701 519.775 L
587.82 519.313 L
596.94 518.854 L
606.059 518.405 L
615.179 517.959 L
624.298 517.52 L
633.418 517.087 L
642.537 516.662 L
651.657 516.244 L
660.776 515.833 L
669.896 515.433 L
679.015 515.042 L
688.135 514.661 L
697.254 514.287 L
706.374 513.926 L
715.493 513.572 L
724.612 513.23 L
733.732 512.901 L
742.851 512.581 L
751.971 512.274 L
761.09 511.979 L
770.21 511.695 L
779.329 511.425 L
788.449 511.168 L
797.568 510.926 L
806.688 510.695 L
815.807 510.478 L
824.927 510.275 L
834.046 510.087 L
843.166 509.914 L
852.285 509.754 L
861.405 509.607 L
870.524 509.477 L
879.644 509.364 L
888.763 509.263 L
897.882 509.178 L
907.002 509.108 L
916.121 509.054 L
925.241 509.015 L
934.36 508.992 L
943.48 508.985 LE
0.886275 0.0980392 0.109804 C
31.5327 179.507 LS
40.6522 179.507 L
49.7717 179.503 L
58.8912 179.494 L
68.0106 179.475 L
77.1301 179.444 L
86.2496 179.398 L
95.369 179.334 L
104.489 179.249 L
113.608 179.14 L
122.727 179.004 L
131.847 178.84 L
140.966 178.643 L
150.086 178.411 L
159.205 178.143 L
168.325 177.834 L
177.444 177.483 L
186.564 177.088 L
195.683 176.647 L
204.803 176.156 L
213.922 175.615 L
223.042 175.021 L
232.161 174.372 L
241.281 173.669 L
250.4 172.906 L
259.52 172.085 L
268.639 171.202 L
277.758 170.259 L
286.878 169.254 L
295.997 168.183 L
305.117 167.049 L
314.236 165.85 L
323.356 164.585 L
332.475 163.253 L
341.595 161.856 L
350.714 160.392 L
359.834 158.863 L
368.953 157.268 L
378.073 155.606 L
387.192 153.879 L
396.312 152.088 L
405.431 150.233 L
414.55 148.315 L
423.67 146.335 L
432.789 144.296 L
441.909 142.196 L
451.028 140.039 L
460.148 137.825 L
469.267 135.558 L
478.387 133.239 L
487.506 130.87 L
496.626 128.453 L
505.745 125.991 L
514.865 123.485 L
523.984 120.939 L
533.104 118.356 L
542.223 115.738 L
551.343 113.088 L
560.462 110.411 L
569.581 107.708 L
578.701 104.983 L
587.82 102.24 L
596.94 99.4827 L
606.059 96.7139 L
615.179 93.9386 L
624.298 91.1601 L
633.418 88.3826 L
642.537 85.6099 L
651.657 82.8468 L
660.776 80.0963 L
669.896 77.3654 L
679.015 74.6547 L
688.135 71.9731 L
697.254 69.3202 L
706.374 66.7064 L
715.493 64.1301 L
724.612 61.6017 L
733.732 59.1215 L
742.851 56.696 L
751.971 54.3318 L
761.09 52.0263 L
770.21 49.7981 L
779.329 47.6379 L
788.449 45.5566 L
797.568 43.5622 L
806.688 41.6495 L
815.807 39.8336 L
824.927 38.1162 L
834.046 36.4943 L
843.166 34.9824 L
852.285 33.5844 L
861.405 32.2952 L
870.524 31.1222 L
879.644 30.0844 L
888.763 29.1681 L
897.882 28.3774 L
907.002 27.7242 L
916.121 27.2183 L
925.241 26.8496 L
934.36 26.6214 L
943.48 26.5358 LE
0.647059 0.337255 0.156863 C
31.5327 26.5358 LS
40.6522 42.3121 L
49.7717 57.9199 L
58.8912 73.3484 L
68.0106 88.5889 L
77.1301 103.625 L
86.2496 118.451 L
95.369 133.058 L
104.489 147.434 L
113.608 161.574 L
122.727 175.472 L
131.847 189.124 L
140.966 202.526 L
150.086 215.674 L
159.205 228.567 L
168.325 241.2 L
177.444 253.574 L
186.564 265.693 L
195.683 277.559 L
204.803 289.165 L
213.922 300.52 L
223.042 311.629 L
232.161 322.485 L
241.281 333.107 L
250.4 343.481 L
259.52 353.63 L
268.639 363.543 L
277.758 373.236 L
286.878 382.711 L
295.997 391.969 L
305.117 401.022 L
314.236 409.876 L
323.356 418.528 L
332.475 426.989 L
341.595 435.268 L
350.714 443.367 L
359.834 451.293 L
368.953 459.05 L
378.073 466.642 L
387.192 474.075 L
396.312 481.354 L
405.431 488.486 L
414.55 495.472 L
423.67 502.32 L
432.789 509.032 L
441.909 515.612 L
451.028 522.058 L
460.148 528.383 L
469.267 534.586 L
478.387 540.669 L
487.506 546.637 L
496.626 552.492 L
505.745 558.232 L
514.865 563.861 L
523.984 569.382 L
533.104 574.798 L
542.223 580.108 L
551.343 585.31 L
560.462 590.41 L
569.581 595.409 L
578.701 600.298 L
587.82 605.087 L
596.94 609.777 L
606.059 614.355 L
615.179 618.838 L
624.298 623.21 L
633.418 627.482 L
642.537 631.648 L
651.657 635.705 L
660.776 639.662 L
669.896 643.501 L
679.015 647.242 L
688.135 650.863 L
697.254 654.383 L
706.374 657.779 L
715.493 661.069 L
724.612 664.24 L
733.732 667.298 L
742.851 670.236 L
751.971 673.051 L
761.09 675.758 L
770.21 678.327 L
779.329 680.784 L
788.449 683.114 L
797.568 685.312 L
806.688 687.391 L
815.807 689.341 L
824.927 691.156 L
834.046 692.847 L
843.166 694.405 L
852.285 695.827 L
861.405 697.12 L
870.524 698.282 L
879.644 699.299 L
888.763 700.184 L
897.882 700.94 L
907.002 701.559 L
916.121 702.031 L
925.241 702.37 L
934.36 702.577 L
943.48 702.65 LE
0.714 W
0 0 0 C
31.5327 26.5358 LS
31.5327 721.474 LE
(0) 24.5255 26.5358 12 /Helvetica SCR
26.5275 26.5358 LS
31.5327 26.5358 LE
(0.1) 24.5255 72.598 12 /Helvetica SCR
26.5275 72.598 LS
31.5327 72.598 LE
(0.2) 24.5255 118.66 12 /Helvetica SCR
26.5275 118.66 LS
31.5327 118.66 LE
(0.3) 24.5255 164.722 12 /Helvetica SCR
26.5275 164.722 LS
31.5327 164.722 LE
(0.4) 24.5255 211.786 12 /Helvetica SCR
26.5275 211.786 LS
31.5327 211.786 LE
(0.5) 24.5255 257.848 12 /Helvetica SCR
26.5275 257.848 LS
31.5327 257.848 LE
(0.6) 24.5255 303.91 12 /Helvetica SCR
26.5275 303.91 LS
31.5327 303.91 LE
(0.7) 24.5255 349.972 12 /Helvetica SCR
26.5275 349.972 LS
31.5327 349.972 LE
(0.8) 24.5255 397.036 12 /Helvetica SCR
26.5275 397.036 LS
31.5327 397.036 LE
(0.9) 24.5255 443.098 12 /Helvetica SCR
26.5275 443.098 LS
31.5327 443.098 LE
(1) 24.5255 489.16 12 /Helvetica SCR
26.5275 489.16 LS
31.5327 489.16 LE
(1.1) 24.5255 535.222 12 /Helvetica SCR
26.5275 535.222 LS
31.5327 535.222 LE
(1.2) 24.5255 582.286 12 /Helvetica SCR
26.5275 582.286 LS
31.5327 582.286 LE
(1.3) 24.5255 628.348 12 /Helvetica SCR
26.5275 628.348 LS
31.5327 628.348 LE
(1.4) 24.5255 674.41 12 /Helvetica SCR
26.5275 674.41 LS
31.5327 674.41 LE
31.5327 26.5358 LS
943.48 26.5358 LE
(0) 31.5327 19.5264 12 /Helvetica STC
31.5327 21.5291 LS
31.5327 26.5358 LE
(0.05) 76.5795 19.5264 12 /Helvetica STC
76.5795 21.5291 LS
76.5795 26.5358 LE
(0.1) 122.627 19.5264 12 /Helvetica STC
122.627 21.5291 LS
122.627 26.5358 LE
(0.15) 167.674 19.5264 12 /Helvetica STC
167.674 21.5291 LS
167.674 26.5358 LE
(0.2) 213.722 19.5264 12 /Helvetica STC
213.722 21.5291 LS
213.722 26.5358 LE
(0.25) 258.769 19.5264 12 /Helvetica STC
258.769 21.5291 LS
258.769 26.5358 LE
(0.3) 304.817 19.5264 12 /Helvetica STC
304.817 21.5291 LS
304.817 26.5358 LE
(0.35) 349.863 19.5264 12 /Helvetica STC
349.863 21.5291 LS
349.863 26.5358 LE
(0.4) 395.911 19.5264 12 /Helvetica STC
395.911 21.5291 LS
395.911 26.5358 LE
(0.45) 440.958 19.5264 12 /Helvetica STC
440.958 21.5291 LS
440.958 26.5358 LE
(0.5) 487.006 19.5264 12 /Helvetica STC
487.006 21.5291 LS
487.006 26.5358 LE
(0.55) 533.054 19.5264 12 /Helvetica STC
533.054 21.5291 LS
533.054 26.5358 LE
(0.6) 578.1 19.5264 12 /Helvetica STC
578.1 21.5291 LS
578.1 26.5358 LE
(0.65) 624.148 19.5264 12 /Helvetica STC
624.148 21.5291 LS
624.148 26.5358 LE
(0.7) 669.195 19.5264 12 /Helvetica STC
669.195 21.5291 LS
669.195 26.5358 LE
(0.75) 715.243 19.5264 12 /Helvetica STC
715.243 21.5291 LS
715.243 26.5358 LE
(0.8) 760.29 19.5264 12 /Helvetica STC
760.29 21.5291 LS
760.29 26.5358 LE
(0.85) 806.337 19.5264 12 /Helvetica STC
806.337 21.5291 LS
806.337 26.5358 LE
(0.9) 851.384 19.5264 12 /Helvetica STC
851.384 21.5291 LS
851.384 26.5358 LE
(0.95) 897.432 19.5264 12 /Helvetica STC
897.432 21.5291 LS
897.432 26.5358 LE
1 1 1 C
831.363 721.474 943.48 665.398 831.363 665.398 T
831.363 721.474 943.48 721.474 943.48 665.398 T
0 0 0 C
831.363 665.398 LS
943.48 665.398 L
943.48 721.474 L
831.363 721.474 L
831.363 665.398 LE
(rhok) 861.395 704.451 12 /Helvetica S
1.428 W
0.219608 0.486275 0.717647 C
836.368 710.459 LS
858.391 710.459 LE
0 0 0 C
(p_rgh) 861.395 687.428 12 /Helvetica S
0.886275 0.0980392 0.109804 C
836.368 693.436 LS
858.391 693.436 LE
0 0 0 C
(U_Magnitude) 861.395 670.405 12 /Helvetica S
0.647059 0.337255 0.156863 C
836.368 676.413 LS
858.391 676.413 LE
grestore
showpage
cleartomark
%%PageTrailer
%%Trailer
end
%%EOF
