%!PS-Adobe-3.0 EPSF-3.0
%%Title: ParaView GL2PS Export
%%Creator: GL2PS 1.3.8, (C) 1999-2012 C. Geuzaine
%%For: VTK
%%CreationDate: Wed Mar  7 11:16:35 2018
%%LanguageLevel: 3
%%DocumentData: Clean7Bit
%%Pages: 1
%%BoundingBox: 0 0 963 741
%%EndComments
%%BeginProlog
/gl2psdict 64 dict def gl2psdict begin
0 setlinecap 0 setlinejoin
/tryPS3shading true def % set to false to force subdivision
/rThreshold 0.064 def % red component subdivision threshold
/gThreshold 0.034 def % green component subdivision threshold
/bThreshold 0.1 def % blue component subdivision threshold
/BD { bind def } bind def
/C  { setrgbcolor } BD
/G  { 0.082 mul exch 0.6094 mul add exch 0.3086 mul add neg 1.0 add setgray } BD
/W  { setlinewidth } BD
/FC { findfont exch /SH exch def SH scalefont setfont } BD
/SW { dup stringwidth pop } BD
/S  { FC moveto show } BD
/SBC{ FC moveto SW -2 div 0 rmoveto show } BD
/SBR{ FC moveto SW neg 0 rmoveto show } BD
/SCL{ FC moveto 0 SH -2 div rmoveto show } BD
/SCC{ FC moveto SW -2 div SH -2 div rmoveto show } BD
/SCR{ FC moveto SW neg SH -2 div rmoveto show } BD
/STL{ FC moveto 0 SH neg rmoveto show } BD
/STC{ FC moveto SW -2 div SH neg rmoveto show } BD
/STR{ FC moveto SW neg SH neg rmoveto show } BD
/FCT { FC translate 0 0 } BD
/SR  { gsave FCT moveto rotate show grestore } BD
/SBCR{ gsave FCT moveto rotate SW -2 div 0 rmoveto show grestore } BD
/SBRR{ gsave FCT moveto rotate SW neg 0 rmoveto show grestore } BD
/SCLR{ gsave FCT moveto rotate 0 SH -2 div rmoveto show grestore} BD
/SCCR{ gsave FCT moveto rotate SW -2 div SH -2 div rmoveto show grestore} BD
/SCRR{ gsave FCT moveto rotate SW neg SH -2 div rmoveto show grestore} BD
/STLR{ gsave FCT moveto rotate 0 SH neg rmoveto show grestore } BD
/STCR{ gsave FCT moveto rotate SW -2 div SH neg rmoveto show grestore } BD
/STRR{ gsave FCT moveto rotate SW neg SH neg rmoveto show grestore } BD
/P  { newpath 0.0 360.0 arc closepath fill } BD
/LS { newpath moveto } BD
/L  { lineto } BD
/LE { lineto stroke } BD
/T  { newpath moveto lineto lineto closepath fill } BD
/STshfill {
      /b1 exch def /g1 exch def /r1 exch def /y1 exch def /x1 exch def
      /b2 exch def /g2 exch def /r2 exch def /y2 exch def /x2 exch def
      /b3 exch def /g3 exch def /r3 exch def /y3 exch def /x3 exch def
      gsave << /ShadingType 4 /ColorSpace [/DeviceRGB]
      /DataSource [ 0 x1 y1 r1 g1 b1 0 x2 y2 r2 g2 b2 0 x3 y3 r3 g3 b3 ] >>
      shfill grestore } BD
/Tm { 3 -1 roll 8 -1 roll 13 -1 roll add add 3 div
      3 -1 roll 7 -1 roll 11 -1 roll add add 3 div
      3 -1 roll 6 -1 roll 9 -1 roll add add 3 div C T } BD
/STsplit {
      4 index 15 index add 0.5 mul
      4 index 15 index add 0.5 mul
      4 index 15 index add 0.5 mul
      4 index 15 index add 0.5 mul
      4 index 15 index add 0.5 mul
      5 copy 5 copy 25 15 roll
      9 index 30 index add 0.5 mul
      9 index 30 index add 0.5 mul
      9 index 30 index add 0.5 mul
      9 index 30 index add 0.5 mul
      9 index 30 index add 0.5 mul
      5 copy 5 copy 35 5 roll 25 5 roll 15 5 roll
      4 index 10 index add 0.5 mul
      4 index 10 index add 0.5 mul
      4 index 10 index add 0.5 mul
      4 index 10 index add 0.5 mul
      4 index 10 index add 0.5 mul
      5 copy 5 copy 40 5 roll 25 5 roll 15 5 roll 25 5 roll
      STnoshfill STnoshfill STnoshfill STnoshfill } BD
/STnoshfill {
      2 index 8 index sub abs rThreshold gt
      { STsplit }
      { 1 index 7 index sub abs gThreshold gt
        { STsplit }
        { dup 6 index sub abs bThreshold gt
          { STsplit }
          { 2 index 13 index sub abs rThreshold gt
            { STsplit }
            { 1 index 12 index sub abs gThreshold gt
              { STsplit }
              { dup 11 index sub abs bThreshold gt
                { STsplit }
                { 7 index 13 index sub abs rThreshold gt
                  { STsplit }
                  { 6 index 12 index sub abs gThreshold gt
                    { STsplit }
                    { 5 index 11 index sub abs bThreshold gt
                      { STsplit }
                      { Tm }
                      ifelse }
                    ifelse }
                  ifelse }
                ifelse }
              ifelse }
            ifelse }
          ifelse }
        ifelse }
      ifelse } BD
tryPS3shading
{ /shfill where
  { /ST { STshfill } BD }
  { /ST { STnoshfill } BD }
  ifelse }
{ /ST { STnoshfill } BD }
ifelse
end
%%EndProlog
%%BeginSetup
/DeviceRGB setcolorspace
gl2psdict begin
%%EndSetup
%%Page: 1 1
%%BeginPageSetup
%%EndPageSetup
mark
gsave
1.0 1.0 scale
1 1 1 C
newpath 0 0 moveto 963 0 lineto 963 741 lineto 0 741 lineto
closepath fill
0.714 W
0.94902 0.94902 0.94902 C
38.54 26.5358 LS
38.54 721.474 LE
83.5868 26.5358 LS
83.5868 721.474 LE
128.634 26.5358 LS
128.634 721.474 LE
173.68 26.5358 LS
173.68 721.474 LE
218.727 26.5358 LS
218.727 721.474 LE
264.775 26.5358 LS
264.775 721.474 LE
309.822 26.5358 LS
309.822 721.474 LE
354.868 26.5358 LS
354.868 721.474 LE
399.915 26.5358 LS
399.915 721.474 LE
444.962 26.5358 LS
444.962 721.474 LE
491.01 26.5358 LS
491.01 721.474 LE
536.057 26.5358 LS
536.057 721.474 LE
581.103 26.5358 LS
581.103 721.474 LE
626.15 26.5358 LS
626.15 721.474 LE
671.197 26.5358 LS
671.197 721.474 LE
717.245 26.5358 LS
717.245 721.474 LE
762.292 26.5358 LS
762.292 721.474 LE
807.338 26.5358 LS
807.338 721.474 LE
852.385 26.5358 LS
852.385 721.474 LE
897.432 26.5358 LS
897.432 721.474 LE
943.48 26.5358 LS
943.48 721.474 LE
38.54 26.5358 LS
943.48 26.5358 LE
38.54 56.5764 LS
943.48 56.5764 LE
38.54 86.6169 LS
943.48 86.6169 LE
38.54 116.657 LS
943.48 116.657 LE
38.54 146.698 LS
943.48 146.698 LE
38.54 176.739 LS
943.48 176.739 LE
38.54 207.78 LS
943.48 207.78 LE
38.54 237.821 LS
943.48 237.821 LE
38.54 267.862 LS
943.48 267.862 LE
38.54 297.902 LS
943.48 297.902 LE
38.54 327.943 LS
943.48 327.943 LE
38.54 357.983 LS
943.48 357.983 LE
38.54 389.025 LS
943.48 389.025 LE
38.54 419.066 LS
943.48 419.066 LE
38.54 449.106 LS
943.48 449.106 LE
38.54 479.147 LS
943.48 479.147 LE
38.54 509.187 LS
943.48 509.187 LE
38.54 539.228 LS
943.48 539.228 LE
38.54 570.27 LS
943.48 570.27 LE
38.54 600.31 LS
943.48 600.31 LE
38.54 630.351 LS
943.48 630.351 LE
38.54 660.391 LS
943.48 660.391 LE
38.54 690.432 LS
943.48 690.432 LE
1.428 W
0.219608 0.486275 0.717647 C
38.54 716.899 LS
47.5894 716.845 L
56.6388 716.673 L
65.6882 716.395 L
74.7376 716.011 L
83.787 715.536 L
92.8364 714.978 L
101.886 714.346 L
110.935 713.651 L
119.985 712.908 L
129.034 712.122 L
138.083 711.307 L
147.133 710.46 L
156.182 709.599 L
165.232 708.726 L
174.281 707.838 L
183.33 706.946 L
192.38 706.046 L
201.429 705.146 L
210.479 704.242 L
219.528 703.342 L
228.577 702.435 L
237.627 701.529 L
246.676 700.622 L
255.726 699.716 L
264.775 698.81 L
273.824 697.903 L
282.874 696.997 L
291.923 696.09 L
300.973 695.184 L
310.022 694.277 L
319.071 693.371 L
328.121 692.465 L
337.17 691.558 L
346.22 690.652 L
355.269 689.745 L
364.318 688.839 L
373.368 687.932 L
382.417 687.026 L
391.467 686.12 L
400.516 685.213 L
409.565 684.307 L
418.615 683.4 L
427.664 682.494 L
436.714 681.587 L
445.763 680.681 L
454.812 679.774 L
463.862 678.868 L
472.911 677.961 L
481.96 677.055 L
491.01 676.149 L
500.059 675.242 L
509.109 674.336 L
518.158 673.429 L
527.207 672.523 L
536.257 671.616 L
545.306 670.71 L
554.356 669.804 L
563.405 668.897 L
572.454 667.991 L
581.504 667.084 L
590.553 666.178 L
599.603 665.271 L
608.652 664.365 L
617.701 663.458 L
626.751 662.552 L
635.8 661.646 L
644.85 660.739 L
653.899 659.833 L
662.948 658.926 L
671.998 658.02 L
681.047 657.113 L
690.097 656.207 L
699.146 655.301 L
708.195 654.394 L
717.245 653.488 L
726.294 652.581 L
735.344 651.675 L
744.393 650.768 L
753.442 649.862 L
762.492 648.961 L
771.541 648.055 L
780.591 647.152 L
789.64 646.251 L
798.689 645.351 L
807.739 644.459 L
816.788 643.574 L
825.838 642.698 L
834.887 641.837 L
843.936 640.991 L
852.986 640.175 L
862.035 639.386 L
871.085 638.643 L
880.134 637.951 L
889.183 637.317 L
898.233 636.761 L
907.282 636.283 L
916.332 635.903 L
925.381 635.625 L
934.43 635.453 L
943.48 635.398 LE
0.886275 0.0980392 0.109804 C
38.54 426.325 LS
47.5894 426.321 L
56.6388 426.295 L
65.6882 426.225 L
74.7376 426.092 L
83.787 425.881 L
92.8364 425.579 L
101.886 425.175 L
110.935 424.665 L
119.985 424.043 L
129.034 423.311 L
138.083 422.468 L
147.133 421.516 L
156.182 420.459 L
165.232 419.299 L
174.281 418.039 L
183.33 416.681 L
192.38 415.229 L
201.429 413.682 L
210.479 412.044 L
219.528 410.314 L
228.577 408.494 L
237.627 406.583 L
246.676 404.583 L
255.726 402.494 L
264.775 400.316 L
273.824 398.049 L
282.874 395.693 L
291.923 393.247 L
300.973 390.713 L
310.022 388.09 L
319.071 385.378 L
328.121 382.576 L
337.17 379.686 L
346.22 376.708 L
355.269 373.64 L
364.318 370.483 L
373.368 367.237 L
382.417 363.903 L
391.467 360.479 L
400.516 356.967 L
409.565 353.366 L
418.615 349.676 L
427.664 345.896 L
436.714 342.028 L
445.763 338.071 L
454.812 334.025 L
463.862 329.89 L
472.911 325.667 L
481.96 321.354 L
491.01 316.952 L
500.059 312.462 L
509.109 307.882 L
518.158 303.214 L
527.207 298.457 L
536.257 293.61 L
545.306 288.675 L
554.356 283.651 L
563.405 278.538 L
572.454 273.336 L
581.504 268.046 L
590.553 262.666 L
599.603 257.197 L
608.652 251.64 L
617.701 245.993 L
626.751 240.258 L
635.8 234.434 L
644.85 228.52 L
653.899 222.518 L
662.948 216.427 L
671.998 210.247 L
681.047 203.978 L
690.097 197.62 L
699.146 191.173 L
708.195 184.638 L
717.245 178.014 L
726.294 171.301 L
735.344 164.501 L
744.393 157.612 L
753.442 150.638 L
762.492 143.578 L
771.541 136.437 L
780.591 129.217 L
789.64 121.926 L
798.689 114.573 L
807.739 107.17 L
816.788 99.7385 L
825.838 92.3035 L
834.887 84.9011 L
843.936 77.5775 L
852.986 70.3912 L
862.035 63.4138 L
871.085 56.7302 L
880.134 50.438 L
889.183 44.6448 L
898.233 39.4648 L
907.282 35.0142 L
916.332 31.4047 L
925.381 28.7376 L
934.43 27.0967 L
943.48 26.5358 LE
0.647059 0.337255 0.156863 C
38.54 26.5358 LS
47.5894 143.512 L
56.6388 253.805 L
65.6882 352.696 L
74.7376 436.759 L
83.787 504.375 L
92.8364 555.776 L
101.886 592.681 L
110.935 617.704 L
119.985 633.729 L
129.034 643.426 L
138.083 648.967 L
147.133 651.968 L
156.182 653.5 L
165.232 654.24 L
174.281 654.578 L
183.33 654.726 L
192.38 654.787 L
201.429 654.811 L
210.479 654.817 L
219.528 654.82 L
228.577 654.82 L
237.627 654.82 L
246.676 654.82 L
255.726 654.82 L
264.775 654.82 L
273.824 654.82 L
282.874 654.82 L
291.923 654.82 L
300.973 654.82 L
310.022 654.82 L
319.071 654.82 L
328.121 654.82 L
337.17 654.82 L
346.22 654.82 L
355.269 654.82 L
364.318 654.82 L
373.368 654.82 L
382.417 654.82 L
391.467 654.82 L
400.516 654.82 L
409.565 654.82 L
418.615 654.82 L
427.664 654.82 L
436.714 654.82 L
445.763 654.82 L
454.812 654.82 L
463.862 654.82 L
472.911 654.82 L
481.96 654.82 L
491.01 654.82 L
500.059 654.82 L
509.109 654.82 L
518.158 654.82 L
527.207 654.82 L
536.257 654.82 L
545.306 654.82 L
554.356 654.82 L
563.405 654.82 L
572.454 654.82 L
581.504 654.82 L
590.553 654.82 L
599.603 654.82 L
608.652 654.82 L
617.701 654.82 L
626.751 654.82 L
635.8 654.82 L
644.85 654.82 L
653.899 654.82 L
662.948 654.82 L
671.998 654.82 L
681.047 654.82 L
690.097 654.82 L
699.146 654.82 L
708.195 654.82 L
717.245 654.82 L
726.294 654.82 L
735.344 654.82 L
744.393 654.82 L
753.442 654.82 L
762.492 654.82 L
771.541 654.82 L
780.591 654.817 L
789.64 654.811 L
798.689 654.79 L
807.739 654.745 L
816.788 654.645 L
825.838 654.436 L
834.887 654.031 L
843.936 653.294 L
852.986 652.028 L
862.035 649.989 L
871.085 646.91 L
880.134 642.574 L
889.183 636.879 L
898.233 629.954 L
907.282 622.204 L
916.332 614.322 L
925.381 607.205 L
934.43 601.786 L
943.48 599.171 LE
0.714 W
0 0 0 C
38.54 26.5358 LS
38.54 721.474 LE
(0) 31.5327 26.5358 12 /Helvetica SCR
33.5349 26.5358 LS
38.54 26.5358 LE
(0.05) 31.5327 56.5764 12 /Helvetica SCR
33.5349 56.5764 LS
38.54 56.5764 LE
(0.1) 31.5327 86.6169 12 /Helvetica SCR
33.5349 86.6169 LS
38.54 86.6169 LE
(0.15) 31.5327 116.657 12 /Helvetica SCR
33.5349 116.657 LS
38.54 116.657 LE
(0.2) 31.5327 146.698 12 /Helvetica SCR
33.5349 146.698 LS
38.54 146.698 LE
(0.25) 31.5327 176.739 12 /Helvetica SCR
33.5349 176.739 LS
38.54 176.739 LE
(0.3) 31.5327 207.78 12 /Helvetica SCR
33.5349 207.78 LS
38.54 207.78 LE
(0.35) 31.5327 237.821 12 /Helvetica SCR
33.5349 237.821 LS
38.54 237.821 LE
(0.4) 31.5327 267.862 12 /Helvetica SCR
33.5349 267.862 LS
38.54 267.862 LE
(0.45) 31.5327 297.902 12 /Helvetica SCR
33.5349 297.902 LS
38.54 297.902 LE
(0.5) 31.5327 327.943 12 /Helvetica SCR
33.5349 327.943 LS
38.54 327.943 LE
(0.55) 31.5327 357.983 12 /Helvetica SCR
33.5349 357.983 LS
38.54 357.983 LE
(0.6) 31.5327 389.025 12 /Helvetica SCR
33.5349 389.025 LS
38.54 389.025 LE
(0.65) 31.5327 419.066 12 /Helvetica SCR
33.5349 419.066 LS
38.54 419.066 LE
(0.7) 31.5327 449.106 12 /Helvetica SCR
33.5349 449.106 LS
38.54 449.106 LE
(0.75) 31.5327 479.147 12 /Helvetica SCR
33.5349 479.147 LS
38.54 479.147 LE
(0.8) 31.5327 509.187 12 /Helvetica SCR
33.5349 509.187 LS
38.54 509.187 LE
(0.85) 31.5327 539.228 12 /Helvetica SCR
33.5349 539.228 LS
38.54 539.228 LE
(0.9) 31.5327 570.27 12 /Helvetica SCR
33.5349 570.27 LS
38.54 570.27 LE
(0.95) 31.5327 600.31 12 /Helvetica SCR
33.5349 600.31 LS
38.54 600.31 LE
(1) 31.5327 630.351 12 /Helvetica SCR
33.5349 630.351 LS
38.54 630.351 LE
(1.05) 31.5327 660.391 12 /Helvetica SCR
33.5349 660.391 LS
38.54 660.391 LE
(1.1) 31.5327 690.432 12 /Helvetica SCR
33.5349 690.432 LS
38.54 690.432 LE
38.54 26.5358 LS
943.48 26.5358 LE
(0) 38.54 19.5264 12 /Helvetica STC
38.54 21.5291 LS
38.54 26.5358 LE
(0.05) 83.5868 19.5264 12 /Helvetica STC
83.5868 21.5291 LS
83.5868 26.5358 LE
(0.1) 128.634 19.5264 12 /Helvetica STC
128.634 21.5291 LS
128.634 26.5358 LE
(0.15) 173.68 19.5264 12 /Helvetica STC
173.68 21.5291 LS
173.68 26.5358 LE
(0.2) 218.727 19.5264 12 /Helvetica STC
218.727 21.5291 LS
218.727 26.5358 LE
(0.25) 264.775 19.5264 12 /Helvetica STC
264.775 21.5291 LS
264.775 26.5358 LE
(0.3) 309.822 19.5264 12 /Helvetica STC
309.822 21.5291 LS
309.822 26.5358 LE
(0.35) 354.868 19.5264 12 /Helvetica STC
354.868 21.5291 LS
354.868 26.5358 LE
(0.4) 399.915 19.5264 12 /Helvetica STC
399.915 21.5291 LS
399.915 26.5358 LE
(0.45) 444.962 19.5264 12 /Helvetica STC
444.962 21.5291 LS
444.962 26.5358 LE
(0.5) 491.01 19.5264 12 /Helvetica STC
491.01 21.5291 LS
491.01 26.5358 LE
(0.55) 536.057 19.5264 12 /Helvetica STC
536.057 21.5291 LS
536.057 26.5358 LE
(0.6) 581.103 19.5264 12 /Helvetica STC
581.103 21.5291 LS
581.103 26.5358 LE
(0.65) 626.15 19.5264 12 /Helvetica STC
626.15 21.5291 LS
626.15 26.5358 LE
(0.7) 671.197 19.5264 12 /Helvetica STC
671.197 21.5291 LS
671.197 26.5358 LE
(0.75) 717.245 19.5264 12 /Helvetica STC
717.245 21.5291 LS
717.245 26.5358 LE
(0.8) 762.292 19.5264 12 /Helvetica STC
762.292 21.5291 LS
762.292 26.5358 LE
(0.85) 807.338 19.5264 12 /Helvetica STC
807.338 21.5291 LS
807.338 26.5358 LE
(0.9) 852.385 19.5264 12 /Helvetica STC
852.385 21.5291 LS
852.385 26.5358 LE
(0.95) 897.432 19.5264 12 /Helvetica STC
897.432 21.5291 LS
897.432 26.5358 LE
(1) 943.48 19.5264 12 /Helvetica STC
943.48 21.5291 LS
943.48 26.5358 LE
1 1 1 C
831.363 721.474 943.48 665.398 831.363 665.398 T
831.363 721.474 943.48 721.474 943.48 665.398 T
0 0 0 C
831.363 665.398 LS
943.48 665.398 L
943.48 721.474 L
831.363 721.474 L
831.363 665.398 LE
(rhok) 861.395 704.451 12 /Helvetica S
1.428 W
0.219608 0.486275 0.717647 C
836.368 710.459 LS
858.391 710.459 LE
0 0 0 C
(p_rgh) 861.395 687.428 12 /Helvetica S
0.886275 0.0980392 0.109804 C
836.368 693.436 LS
858.391 693.436 LE
0 0 0 C
(U_Magnitude) 861.395 670.405 12 /Helvetica S
0.647059 0.337255 0.156863 C
836.368 676.413 LS
858.391 676.413 LE
grestore
showpage
cleartomark
%%PageTrailer
%%Trailer
end
%%EOF
